>#Const C_ConstA 10 // Comment
#^^^^^^ source.maniascript meta.directive.const.maniascript keyword.other.directive.const.maniascript
#      ^ source.maniascript meta.directive.const.maniascript
#       ^^^^^^^^ source.maniascript meta.directive.const.maniascript variable.other.constant.maniascript
#               ^ source.maniascript meta.directive.const.maniascript
#                ^^ source.maniascript meta.directive.const.maniascript constant.numeric.integer.maniascript
#                  ^ source.maniascript meta.directive.const.maniascript
#                   ^^ source.maniascript meta.directive.const.maniascript comment.line.double-slash.maniascript punctuation.definition.comment.maniascript
#                     ^^^^^^^^ source.maniascript meta.directive.const.maniascript comment.line.double-slash.maniascript
>#Const Namespace::C_TestA as C_TestB // Comment
#^^^^^^ source.maniascript meta.directive.const.maniascript keyword.other.directive.const.maniascript
#      ^ source.maniascript meta.directive.const.maniascript
#       ^^^^^^^^^ source.maniascript meta.directive.const.maniascript variable.other.namespace.maniascript
#                ^^ source.maniascript meta.directive.const.maniascript punctuation.separator.coloncolon.maniascript
#                  ^^^^^^^ source.maniascript meta.directive.const.maniascript variable.other.constant.maniascript
#                         ^ source.maniascript meta.directive.const.maniascript
#                          ^^ source.maniascript meta.directive.const.maniascript keyword.operator.expression.as.maniascript
#                            ^ source.maniascript meta.directive.const.maniascript
#                             ^^^^^^^ source.maniascript meta.directive.const.maniascript variable.other.constant.maniascript
#                                    ^ source.maniascript meta.directive.const.maniascript
#                                     ^^ source.maniascript meta.directive.const.maniascript comment.line.double-slash.maniascript punctuation.definition.comment.maniascript
#                                       ^^^^^^^^ source.maniascript meta.directive.const.maniascript comment.line.double-slash.maniascript
>#Const C_Constant [
#^^^^^^ source.maniascript meta.directive.const.maniascript keyword.other.directive.const.maniascript
#      ^ source.maniascript meta.directive.const.maniascript
#       ^^^^^^^^^^ source.maniascript meta.directive.const.maniascript variable.other.constant.maniascript
#                 ^ source.maniascript meta.directive.const.maniascript
#                  ^ source.maniascript meta.directive.const.maniascript meta.array.expression.maniascript punctuation.squarebracket.open.maniascript
>	"AAA" => 111,
#^ source.maniascript meta.directive.const.maniascript meta.array.expression.maniascript
# ^ source.maniascript meta.directive.const.maniascript meta.array.expression.maniascript string.quoted.double.maniascript punctuation.definition.string.begin.maniascript
#  ^^^ source.maniascript meta.directive.const.maniascript meta.array.expression.maniascript string.quoted.double.maniascript
#     ^ source.maniascript meta.directive.const.maniascript meta.array.expression.maniascript string.quoted.double.maniascript punctuation.definition.string.end.maniascript
#      ^ source.maniascript meta.directive.const.maniascript meta.array.expression.maniascript
#       ^^ source.maniascript meta.directive.const.maniascript meta.array.expression.maniascript keyword.operator.arrow.maniascript
#         ^ source.maniascript meta.directive.const.maniascript meta.array.expression.maniascript
#          ^^^ source.maniascript meta.directive.const.maniascript meta.array.expression.maniascript constant.numeric.integer.maniascript
#             ^ source.maniascript meta.directive.const.maniascript meta.array.expression.maniascript punctuation.separator.comma.maniascript
>	"BBB" => 222, // Comment
#^ source.maniascript meta.directive.const.maniascript meta.array.expression.maniascript
# ^ source.maniascript meta.directive.const.maniascript meta.array.expression.maniascript string.quoted.double.maniascript punctuation.definition.string.begin.maniascript
#  ^^^ source.maniascript meta.directive.const.maniascript meta.array.expression.maniascript string.quoted.double.maniascript
#     ^ source.maniascript meta.directive.const.maniascript meta.array.expression.maniascript string.quoted.double.maniascript punctuation.definition.string.end.maniascript
#      ^ source.maniascript meta.directive.const.maniascript meta.array.expression.maniascript
#       ^^ source.maniascript meta.directive.const.maniascript meta.array.expression.maniascript keyword.operator.arrow.maniascript
#         ^ source.maniascript meta.directive.const.maniascript meta.array.expression.maniascript
#          ^^^ source.maniascript meta.directive.const.maniascript meta.array.expression.maniascript constant.numeric.integer.maniascript
#             ^ source.maniascript meta.directive.const.maniascript meta.array.expression.maniascript punctuation.separator.comma.maniascript
#              ^ source.maniascript meta.directive.const.maniascript meta.array.expression.maniascript
#               ^^ source.maniascript meta.directive.const.maniascript meta.array.expression.maniascript comment.line.double-slash.maniascript punctuation.definition.comment.maniascript
#                 ^^^^^^^^ source.maniascript meta.directive.const.maniascript meta.array.expression.maniascript comment.line.double-slash.maniascript
>	"CCC" => 333,
#^ source.maniascript meta.directive.const.maniascript meta.array.expression.maniascript
# ^ source.maniascript meta.directive.const.maniascript meta.array.expression.maniascript string.quoted.double.maniascript punctuation.definition.string.begin.maniascript
#  ^^^ source.maniascript meta.directive.const.maniascript meta.array.expression.maniascript string.quoted.double.maniascript
#     ^ source.maniascript meta.directive.const.maniascript meta.array.expression.maniascript string.quoted.double.maniascript punctuation.definition.string.end.maniascript
#      ^ source.maniascript meta.directive.const.maniascript meta.array.expression.maniascript
#       ^^ source.maniascript meta.directive.const.maniascript meta.array.expression.maniascript keyword.operator.arrow.maniascript
#         ^ source.maniascript meta.directive.const.maniascript meta.array.expression.maniascript
#          ^^^ source.maniascript meta.directive.const.maniascript meta.array.expression.maniascript constant.numeric.integer.maniascript
#             ^ source.maniascript meta.directive.const.maniascript meta.array.expression.maniascript punctuation.separator.comma.maniascript
>  /* Comment */
#^^ source.maniascript meta.directive.const.maniascript meta.array.expression.maniascript
#  ^^ source.maniascript meta.directive.const.maniascript meta.array.expression.maniascript comment.block.maniascript punctuation.definition.comment.maniascript
#    ^^^^^^^^^ source.maniascript meta.directive.const.maniascript meta.array.expression.maniascript comment.block.maniascript
#             ^^ source.maniascript meta.directive.const.maniascript meta.array.expression.maniascript comment.block.maniascript punctuation.definition.comment.maniascript
>	"DDD" => 444
#^ source.maniascript meta.directive.const.maniascript meta.array.expression.maniascript
# ^ source.maniascript meta.directive.const.maniascript meta.array.expression.maniascript string.quoted.double.maniascript punctuation.definition.string.begin.maniascript
#  ^^^ source.maniascript meta.directive.const.maniascript meta.array.expression.maniascript string.quoted.double.maniascript
#     ^ source.maniascript meta.directive.const.maniascript meta.array.expression.maniascript string.quoted.double.maniascript punctuation.definition.string.end.maniascript
#      ^ source.maniascript meta.directive.const.maniascript meta.array.expression.maniascript
#       ^^ source.maniascript meta.directive.const.maniascript meta.array.expression.maniascript keyword.operator.arrow.maniascript
#         ^ source.maniascript meta.directive.const.maniascript meta.array.expression.maniascript
#          ^^^ source.maniascript meta.directive.const.maniascript meta.array.expression.maniascript constant.numeric.integer.maniascript
>]
#^ source.maniascript meta.directive.const.maniascript meta.array.expression.maniascript punctuation.squarebracket.close.maniascript
>#Const C_Constant K_Structure {
#^^^^^^ source.maniascript meta.directive.const.maniascript keyword.other.directive.const.maniascript
#      ^ source.maniascript meta.directive.const.maniascript
#       ^^^^^^^^^^ source.maniascript meta.directive.const.maniascript variable.other.constant.maniascript
#                 ^ source.maniascript meta.directive.const.maniascript
#                  ^^^^^^^^^^^ source.maniascript meta.directive.const.maniascript meta.struct.maniascript entity.name.type.struct.maniascript
#                             ^ source.maniascript meta.directive.const.maniascript meta.struct.maniascript
#                              ^ source.maniascript meta.directive.const.maniascript meta.struct.maniascript punctuation.definition.struct.begin.maniascript
>	AAA = 0,
#^ source.maniascript meta.directive.const.maniascript meta.struct.maniascript
# ^^^ source.maniascript meta.directive.const.maniascript meta.struct.maniascript variable.other.struct.member.maniascript
#    ^ source.maniascript meta.directive.const.maniascript meta.struct.maniascript
#     ^ source.maniascript meta.directive.const.maniascript meta.struct.maniascript keyword.operator.assignment.maniascript
#      ^ source.maniascript meta.directive.const.maniascript meta.struct.maniascript
#       ^ source.maniascript meta.directive.const.maniascript meta.struct.maniascript constant.numeric.integer.maniascript
#        ^ source.maniascript meta.directive.const.maniascript meta.struct.maniascript punctuation.separator.comma.maniascript
>  BBB = "Text", // Comment
#^^ source.maniascript meta.directive.const.maniascript meta.struct.maniascript
#  ^^^ source.maniascript meta.directive.const.maniascript meta.struct.maniascript variable.other.struct.member.maniascript
#     ^ source.maniascript meta.directive.const.maniascript meta.struct.maniascript
#      ^ source.maniascript meta.directive.const.maniascript meta.struct.maniascript keyword.operator.assignment.maniascript
#       ^ source.maniascript meta.directive.const.maniascript meta.struct.maniascript
#        ^ source.maniascript meta.directive.const.maniascript meta.struct.maniascript string.quoted.double.maniascript punctuation.definition.string.begin.maniascript
#         ^^^^ source.maniascript meta.directive.const.maniascript meta.struct.maniascript string.quoted.double.maniascript
#             ^ source.maniascript meta.directive.const.maniascript meta.struct.maniascript string.quoted.double.maniascript punctuation.definition.string.end.maniascript
#              ^ source.maniascript meta.directive.const.maniascript meta.struct.maniascript punctuation.separator.comma.maniascript
#               ^ source.maniascript meta.directive.const.maniascript meta.struct.maniascript
#                ^^ source.maniascript meta.directive.const.maniascript meta.struct.maniascript comment.line.double-slash.maniascript punctuation.definition.comment.maniascript
#                  ^^^^^^^^ source.maniascript meta.directive.const.maniascript meta.struct.maniascript comment.line.double-slash.maniascript
>  CCC = False,
#^^ source.maniascript meta.directive.const.maniascript meta.struct.maniascript
#  ^^^ source.maniascript meta.directive.const.maniascript meta.struct.maniascript variable.other.struct.member.maniascript
#     ^ source.maniascript meta.directive.const.maniascript meta.struct.maniascript
#      ^ source.maniascript meta.directive.const.maniascript meta.struct.maniascript keyword.operator.assignment.maniascript
#       ^ source.maniascript meta.directive.const.maniascript meta.struct.maniascript
#        ^^^^^ source.maniascript meta.directive.const.maniascript meta.struct.maniascript constant.language.boolean.false.maniascript
#             ^ source.maniascript meta.directive.const.maniascript meta.struct.maniascript punctuation.separator.comma.maniascript
>  /* Comment */
#^^ source.maniascript meta.directive.const.maniascript meta.struct.maniascript
#  ^^ source.maniascript meta.directive.const.maniascript meta.struct.maniascript comment.block.maniascript punctuation.definition.comment.maniascript
#    ^^^^^^^^^ source.maniascript meta.directive.const.maniascript meta.struct.maniascript comment.block.maniascript
#             ^^ source.maniascript meta.directive.const.maniascript meta.struct.maniascript comment.block.maniascript punctuation.definition.comment.maniascript
>  DDD = Null
#^^ source.maniascript meta.directive.const.maniascript meta.struct.maniascript
#  ^^^ source.maniascript meta.directive.const.maniascript meta.struct.maniascript variable.other.struct.member.maniascript
#     ^ source.maniascript meta.directive.const.maniascript meta.struct.maniascript
#      ^ source.maniascript meta.directive.const.maniascript meta.struct.maniascript keyword.operator.assignment.maniascript
#       ^ source.maniascript meta.directive.const.maniascript meta.struct.maniascript
#        ^^^^ source.maniascript meta.directive.const.maniascript meta.struct.maniascript constant.language.null.maniascript
>}
#^ source.maniascript meta.directive.const.maniascript meta.struct.maniascript punctuation.definition.struct.end.maniascript
>#Const
#^^^^^^ source.maniascript meta.directive.const.maniascript keyword.other.directive.const.maniascript
>// Comment
#^^ source.maniascript meta.directive.const.maniascript comment.line.double-slash.maniascript punctuation.definition.comment.maniascript
#  ^^^^^^^^ source.maniascript meta.directive.const.maniascript comment.line.double-slash.maniascript
>C_Constant
#^^^^^^^^^^ source.maniascript meta.directive.const.maniascript variable.other.constant.maniascript
>123
#^^^ source.maniascript meta.directive.const.maniascript constant.numeric.integer.maniascript
>#Const
#^^^^^^ source.maniascript meta.directive.const.maniascript keyword.other.directive.const.maniascript
>// Comment
#^^ source.maniascript meta.directive.const.maniascript comment.line.double-slash.maniascript punctuation.definition.comment.maniascript
#  ^^^^^^^^ source.maniascript meta.directive.const.maniascript comment.line.double-slash.maniascript
>// Comment
#^^ source.maniascript meta.directive.const.maniascript comment.line.double-slash.maniascript punctuation.definition.comment.maniascript
#  ^^^^^^^^ source.maniascript meta.directive.const.maniascript comment.line.double-slash.maniascript
>C_Constant
#^^^^^^^^^^ source.maniascript meta.directive.const.maniascript variable.other.constant.maniascript
>123
#^^^ source.maniascript meta.directive.const.maniascript constant.numeric.integer.maniascript
>#Const
#^^^^^^ source.maniascript meta.directive.const.maniascript keyword.other.directive.const.maniascript
>/*
#^^ source.maniascript meta.directive.const.maniascript comment.block.maniascript punctuation.definition.comment.maniascript
>Comment
#^^^^^^^^ source.maniascript meta.directive.const.maniascript comment.block.maniascript
>*/
#^^ source.maniascript meta.directive.const.maniascript comment.block.maniascript punctuation.definition.comment.maniascript
>C_Constant
#^^^^^^^^^^ source.maniascript meta.directive.const.maniascript variable.other.constant.maniascript
>123
#^^^ source.maniascript meta.directive.const.maniascript constant.numeric.integer.maniascript
>#Const C_Constant 1
#^^^^^^ source.maniascript meta.directive.const.maniascript keyword.other.directive.const.maniascript
#      ^ source.maniascript meta.directive.const.maniascript
#       ^^^^^^^^^^ source.maniascript meta.directive.const.maniascript variable.other.constant.maniascript
#                 ^ source.maniascript meta.directive.const.maniascript
#                  ^ source.maniascript meta.directive.const.maniascript constant.numeric.integer.maniascript
>Void Function() {}
#^^^^ source.maniascript meta.definition.function.maniascript meta.type.name.maniascript storage.type.maniascript
#    ^ source.maniascript meta.definition.function.maniascript
#     ^^^^^^^^ source.maniascript meta.definition.function.maniascript entity.name.function.maniascript
#             ^ source.maniascript meta.definition.function.maniascript meta.definition.parameters.maniascript punctuation.parenthesis.open.maniascript
#              ^ source.maniascript meta.definition.function.maniascript meta.definition.parameters.maniascript punctuation.parenthesis.close.maniascript
#               ^ source.maniascript meta.definition.function.maniascript
#                ^ source.maniascript meta.definition.function.maniascript meta.block.maniascript punctuation.curlybrace.open.maniascript
#                 ^ source.maniascript meta.definition.function.maniascript meta.block.maniascript punctuation.curlybrace.close.maniascript
>// #Const C_Constant 1
#^^ source.maniascript comment.line.double-slash.maniascript punctuation.definition.comment.maniascript
#  ^^^^^^^^^^^^^^^^^^^^ source.maniascript comment.line.double-slash.maniascript
>#Const
#^^^^^^ source.maniascript meta.directive.const.maniascript keyword.other.directive.const.maniascript
>// Comment
#^^ source.maniascript meta.directive.const.maniascript comment.line.double-slash.maniascript punctuation.definition.comment.maniascript
#  ^^^^^^^^ source.maniascript meta.directive.const.maniascript comment.line.double-slash.maniascript
>AAA :: BBB
#^^^ source.maniascript meta.directive.const.maniascript variable.other.namespace.maniascript
#   ^ source.maniascript meta.directive.const.maniascript
#    ^^ source.maniascript meta.directive.const.maniascript punctuation.separator.coloncolon.maniascript
#      ^ source.maniascript meta.directive.const.maniascript
#       ^^^ source.maniascript meta.directive.const.maniascript variable.other.constant.maniascript
>// Comment
#^^ source.maniascript meta.directive.const.maniascript comment.line.double-slash.maniascript punctuation.definition.comment.maniascript
#  ^^^^^^^^ source.maniascript meta.directive.const.maniascript comment.line.double-slash.maniascript
>as
#^^ source.maniascript meta.directive.const.maniascript keyword.operator.expression.as.maniascript
>// Comment
#^^ source.maniascript meta.directive.const.maniascript comment.line.double-slash.maniascript punctuation.definition.comment.maniascript
#  ^^^^^^^^ source.maniascript meta.directive.const.maniascript comment.line.double-slash.maniascript
>CCC
#^^^ source.maniascript meta.directive.const.maniascript variable.other.constant.maniascript
>// Comment
#^^ source.maniascript meta.directive.const.maniascript comment.line.double-slash.maniascript punctuation.definition.comment.maniascript
#  ^^^^^^^^ source.maniascript meta.directive.const.maniascript comment.line.double-slash.maniascript
>