>main() {
#^^^^ source.maniascript meta.main.maniascript support.function.maniascript
#    ^ source.maniascript meta.main.maniascript meta.definition.parameters.maniascript punctuation.parenthesis.open.maniascript
#     ^ source.maniascript meta.main.maniascript meta.definition.parameters.maniascript punctuation.parenthesis.close.maniascript
#      ^ source.maniascript meta.main.maniascript
#       ^ source.maniascript meta.main.maniascript meta.block.maniascript punctuation.curlybrace.open.maniascript
>  Test;
#^^ source.maniascript meta.main.maniascript meta.block.maniascript
#  ^^^^ source.maniascript meta.main.maniascript meta.block.maniascript variable.other.readwrite.maniascript
#      ^ source.maniascript meta.main.maniascript meta.block.maniascript punctuation.terminator.statement.maniascript
>  Namespace::Test;
#^^ source.maniascript meta.main.maniascript meta.block.maniascript
#  ^^^^^^^^^ source.maniascript meta.main.maniascript meta.block.maniascript variable.other.namespace.maniascript
#           ^^ source.maniascript meta.main.maniascript meta.block.maniascript punctuation.separator.coloncolon.maniascript
#             ^^^^ source.maniascript meta.main.maniascript meta.block.maniascript variable.other.constant.maniascript
#                 ^ source.maniascript meta.main.maniascript meta.block.maniascript punctuation.terminator.statement.maniascript
>}
#^ source.maniascript meta.main.maniascript meta.block.maniascript punctuation.curlybrace.close.maniascript
>