>main() {
#^^^^ source.maniascript meta.main.maniascript support.function.maniascript
#    ^ source.maniascript meta.main.maniascript meta.definition.parameters.maniascript punctuation.parenthesis.open.maniascript
#     ^ source.maniascript meta.main.maniascript meta.definition.parameters.maniascript punctuation.parenthesis.close.maniascript
#      ^ source.maniascript meta.main.maniascript
#       ^ source.maniascript meta.main.maniascript meta.block.maniascript punctuation.curlybrace.open.maniascript
>  K_Test {
#^^ source.maniascript meta.main.maniascript meta.block.maniascript
#  ^^^^^^ source.maniascript meta.main.maniascript meta.block.maniascript meta.struct.maniascript entity.name.type.struct.maniascript
#        ^ source.maniascript meta.main.maniascript meta.block.maniascript meta.struct.maniascript
#         ^ source.maniascript meta.main.maniascript meta.block.maniascript meta.struct.maniascript punctuation.definition.struct.begin.maniascript
>    Test = 0,
#^^^^ source.maniascript meta.main.maniascript meta.block.maniascript meta.struct.maniascript
#    ^^^^ source.maniascript meta.main.maniascript meta.block.maniascript meta.struct.maniascript variable.other.struct.member.maniascript
#        ^ source.maniascript meta.main.maniascript meta.block.maniascript meta.struct.maniascript
#         ^ source.maniascript meta.main.maniascript meta.block.maniascript meta.struct.maniascript keyword.operator.assignment.maniascript
#          ^ source.maniascript meta.main.maniascript meta.block.maniascript meta.struct.maniascript
#           ^ source.maniascript meta.main.maniascript meta.block.maniascript meta.struct.maniascript constant.numeric.integer.maniascript
#            ^ source.maniascript meta.main.maniascript meta.block.maniascript meta.struct.maniascript punctuation.separator.comma.maniascript
>    Test = "Coucou",
#^^^^ source.maniascript meta.main.maniascript meta.block.maniascript meta.struct.maniascript
#    ^^^^ source.maniascript meta.main.maniascript meta.block.maniascript meta.struct.maniascript variable.other.struct.member.maniascript
#        ^ source.maniascript meta.main.maniascript meta.block.maniascript meta.struct.maniascript
#         ^ source.maniascript meta.main.maniascript meta.block.maniascript meta.struct.maniascript keyword.operator.assignment.maniascript
#          ^ source.maniascript meta.main.maniascript meta.block.maniascript meta.struct.maniascript
#           ^ source.maniascript meta.main.maniascript meta.block.maniascript meta.struct.maniascript string.quoted.double.maniascript punctuation.definition.string.begin.maniascript
#            ^^^^^^ source.maniascript meta.main.maniascript meta.block.maniascript meta.struct.maniascript string.quoted.double.maniascript
#                  ^ source.maniascript meta.main.maniascript meta.block.maniascript meta.struct.maniascript string.quoted.double.maniascript punctuation.definition.string.end.maniascript
#                   ^ source.maniascript meta.main.maniascript meta.block.maniascript meta.struct.maniascript punctuation.separator.comma.maniascript
>    Test = K_Test {
#^^^^ source.maniascript meta.main.maniascript meta.block.maniascript meta.struct.maniascript
#    ^^^^ source.maniascript meta.main.maniascript meta.block.maniascript meta.struct.maniascript variable.other.struct.member.maniascript
#        ^ source.maniascript meta.main.maniascript meta.block.maniascript meta.struct.maniascript
#         ^ source.maniascript meta.main.maniascript meta.block.maniascript meta.struct.maniascript keyword.operator.assignment.maniascript
#          ^ source.maniascript meta.main.maniascript meta.block.maniascript meta.struct.maniascript
#           ^^^^^^ source.maniascript meta.main.maniascript meta.block.maniascript meta.struct.maniascript meta.struct.maniascript entity.name.type.struct.maniascript
#                 ^ source.maniascript meta.main.maniascript meta.block.maniascript meta.struct.maniascript meta.struct.maniascript
#                  ^ source.maniascript meta.main.maniascript meta.block.maniascript meta.struct.maniascript meta.struct.maniascript punctuation.definition.struct.begin.maniascript
>      Test = 0,
#^^^^^^ source.maniascript meta.main.maniascript meta.block.maniascript meta.struct.maniascript meta.struct.maniascript
#      ^^^^ source.maniascript meta.main.maniascript meta.block.maniascript meta.struct.maniascript meta.struct.maniascript variable.other.struct.member.maniascript
#          ^ source.maniascript meta.main.maniascript meta.block.maniascript meta.struct.maniascript meta.struct.maniascript
#           ^ source.maniascript meta.main.maniascript meta.block.maniascript meta.struct.maniascript meta.struct.maniascript keyword.operator.assignment.maniascript
#            ^ source.maniascript meta.main.maniascript meta.block.maniascript meta.struct.maniascript meta.struct.maniascript
#             ^ source.maniascript meta.main.maniascript meta.block.maniascript meta.struct.maniascript meta.struct.maniascript constant.numeric.integer.maniascript
#              ^ source.maniascript meta.main.maniascript meta.block.maniascript meta.struct.maniascript meta.struct.maniascript punctuation.separator.comma.maniascript
>      Test = K_Test {
#^^^^^^ source.maniascript meta.main.maniascript meta.block.maniascript meta.struct.maniascript meta.struct.maniascript
#      ^^^^ source.maniascript meta.main.maniascript meta.block.maniascript meta.struct.maniascript meta.struct.maniascript variable.other.struct.member.maniascript
#          ^ source.maniascript meta.main.maniascript meta.block.maniascript meta.struct.maniascript meta.struct.maniascript
#           ^ source.maniascript meta.main.maniascript meta.block.maniascript meta.struct.maniascript meta.struct.maniascript keyword.operator.assignment.maniascript
#            ^ source.maniascript meta.main.maniascript meta.block.maniascript meta.struct.maniascript meta.struct.maniascript
#             ^^^^^^ source.maniascript meta.main.maniascript meta.block.maniascript meta.struct.maniascript meta.struct.maniascript meta.struct.maniascript entity.name.type.struct.maniascript
#                   ^ source.maniascript meta.main.maniascript meta.block.maniascript meta.struct.maniascript meta.struct.maniascript meta.struct.maniascript
#                    ^ source.maniascript meta.main.maniascript meta.block.maniascript meta.struct.maniascript meta.struct.maniascript meta.struct.maniascript punctuation.definition.struct.begin.maniascript
>        Test = """Coucou """
#^^^^^^^^ source.maniascript meta.main.maniascript meta.block.maniascript meta.struct.maniascript meta.struct.maniascript meta.struct.maniascript
#        ^^^^ source.maniascript meta.main.maniascript meta.block.maniascript meta.struct.maniascript meta.struct.maniascript meta.struct.maniascript variable.other.struct.member.maniascript
#            ^ source.maniascript meta.main.maniascript meta.block.maniascript meta.struct.maniascript meta.struct.maniascript meta.struct.maniascript
#             ^ source.maniascript meta.main.maniascript meta.block.maniascript meta.struct.maniascript meta.struct.maniascript meta.struct.maniascript keyword.operator.assignment.maniascript
#              ^ source.maniascript meta.main.maniascript meta.block.maniascript meta.struct.maniascript meta.struct.maniascript meta.struct.maniascript
#               ^^^ source.maniascript meta.main.maniascript meta.block.maniascript meta.struct.maniascript meta.struct.maniascript meta.struct.maniascript string.quoted.triple.maniascript punctuation.definition.string.begin.maniascript
#                  ^^^^^^^ source.maniascript meta.main.maniascript meta.block.maniascript meta.struct.maniascript meta.struct.maniascript meta.struct.maniascript string.quoted.triple.maniascript
#                         ^^^ source.maniascript meta.main.maniascript meta.block.maniascript meta.struct.maniascript meta.struct.maniascript meta.struct.maniascript string.quoted.triple.maniascript punctuation.definition.string.end.maniascript
>      }
#^^^^^^ source.maniascript meta.main.maniascript meta.block.maniascript meta.struct.maniascript meta.struct.maniascript meta.struct.maniascript
#      ^ source.maniascript meta.main.maniascript meta.block.maniascript meta.struct.maniascript meta.struct.maniascript meta.struct.maniascript punctuation.definition.struct.end.maniascript
>    },
#^^^^ source.maniascript meta.main.maniascript meta.block.maniascript meta.struct.maniascript meta.struct.maniascript
#    ^ source.maniascript meta.main.maniascript meta.block.maniascript meta.struct.maniascript meta.struct.maniascript punctuation.definition.struct.end.maniascript
#     ^ source.maniascript meta.main.maniascript meta.block.maniascript meta.struct.maniascript punctuation.separator.comma.maniascript
>    Test = 10,
#^^^^ source.maniascript meta.main.maniascript meta.block.maniascript meta.struct.maniascript
#    ^^^^ source.maniascript meta.main.maniascript meta.block.maniascript meta.struct.maniascript variable.other.struct.member.maniascript
#        ^ source.maniascript meta.main.maniascript meta.block.maniascript meta.struct.maniascript
#         ^ source.maniascript meta.main.maniascript meta.block.maniascript meta.struct.maniascript keyword.operator.assignment.maniascript
#          ^ source.maniascript meta.main.maniascript meta.block.maniascript meta.struct.maniascript
#           ^^ source.maniascript meta.main.maniascript meta.block.maniascript meta.struct.maniascript constant.numeric.integer.maniascript
#             ^ source.maniascript meta.main.maniascript meta.block.maniascript meta.struct.maniascript punctuation.separator.comma.maniascript
>    Test = "Coucou"
#^^^^ source.maniascript meta.main.maniascript meta.block.maniascript meta.struct.maniascript
#    ^^^^ source.maniascript meta.main.maniascript meta.block.maniascript meta.struct.maniascript variable.other.struct.member.maniascript
#        ^ source.maniascript meta.main.maniascript meta.block.maniascript meta.struct.maniascript
#         ^ source.maniascript meta.main.maniascript meta.block.maniascript meta.struct.maniascript keyword.operator.assignment.maniascript
#          ^ source.maniascript meta.main.maniascript meta.block.maniascript meta.struct.maniascript
#           ^ source.maniascript meta.main.maniascript meta.block.maniascript meta.struct.maniascript string.quoted.double.maniascript punctuation.definition.string.begin.maniascript
#            ^^^^^^ source.maniascript meta.main.maniascript meta.block.maniascript meta.struct.maniascript string.quoted.double.maniascript
#                  ^ source.maniascript meta.main.maniascript meta.block.maniascript meta.struct.maniascript string.quoted.double.maniascript punctuation.definition.string.end.maniascript
>  };
#^^ source.maniascript meta.main.maniascript meta.block.maniascript meta.struct.maniascript
#  ^ source.maniascript meta.main.maniascript meta.block.maniascript meta.struct.maniascript punctuation.definition.struct.end.maniascript
#   ^ source.maniascript meta.main.maniascript meta.block.maniascript punctuation.terminator.statement.maniascript
>  K_Test { Test = 0, Test = "Coucou", Test = K_Test { Test = 0, Test = K_Test { Test = """Coucou """ } }, Test = 10, Test = "Coucou" };
#^^ source.maniascript meta.main.maniascript meta.block.maniascript
#  ^^^^^^ source.maniascript meta.main.maniascript meta.block.maniascript meta.struct.maniascript entity.name.type.struct.maniascript
#        ^ source.maniascript meta.main.maniascript meta.block.maniascript meta.struct.maniascript
#         ^ source.maniascript meta.main.maniascript meta.block.maniascript meta.struct.maniascript punctuation.definition.struct.begin.maniascript
#          ^ source.maniascript meta.main.maniascript meta.block.maniascript meta.struct.maniascript
#           ^^^^ source.maniascript meta.main.maniascript meta.block.maniascript meta.struct.maniascript variable.other.struct.member.maniascript
#               ^ source.maniascript meta.main.maniascript meta.block.maniascript meta.struct.maniascript
#                ^ source.maniascript meta.main.maniascript meta.block.maniascript meta.struct.maniascript keyword.operator.assignment.maniascript
#                 ^ source.maniascript meta.main.maniascript meta.block.maniascript meta.struct.maniascript
#                  ^ source.maniascript meta.main.maniascript meta.block.maniascript meta.struct.maniascript constant.numeric.integer.maniascript
#                   ^ source.maniascript meta.main.maniascript meta.block.maniascript meta.struct.maniascript punctuation.separator.comma.maniascript
#                    ^ source.maniascript meta.main.maniascript meta.block.maniascript meta.struct.maniascript
#                     ^^^^ source.maniascript meta.main.maniascript meta.block.maniascript meta.struct.maniascript variable.other.struct.member.maniascript
#                         ^ source.maniascript meta.main.maniascript meta.block.maniascript meta.struct.maniascript
#                          ^ source.maniascript meta.main.maniascript meta.block.maniascript meta.struct.maniascript keyword.operator.assignment.maniascript
#                           ^ source.maniascript meta.main.maniascript meta.block.maniascript meta.struct.maniascript
#                            ^ source.maniascript meta.main.maniascript meta.block.maniascript meta.struct.maniascript string.quoted.double.maniascript punctuation.definition.string.begin.maniascript
#                             ^^^^^^ source.maniascript meta.main.maniascript meta.block.maniascript meta.struct.maniascript string.quoted.double.maniascript
#                                   ^ source.maniascript meta.main.maniascript meta.block.maniascript meta.struct.maniascript string.quoted.double.maniascript punctuation.definition.string.end.maniascript
#                                    ^ source.maniascript meta.main.maniascript meta.block.maniascript meta.struct.maniascript punctuation.separator.comma.maniascript
#                                     ^ source.maniascript meta.main.maniascript meta.block.maniascript meta.struct.maniascript
#                                      ^^^^ source.maniascript meta.main.maniascript meta.block.maniascript meta.struct.maniascript variable.other.struct.member.maniascript
#                                          ^ source.maniascript meta.main.maniascript meta.block.maniascript meta.struct.maniascript
#                                           ^ source.maniascript meta.main.maniascript meta.block.maniascript meta.struct.maniascript keyword.operator.assignment.maniascript
#                                            ^ source.maniascript meta.main.maniascript meta.block.maniascript meta.struct.maniascript
#                                             ^^^^^^ source.maniascript meta.main.maniascript meta.block.maniascript meta.struct.maniascript meta.struct.maniascript entity.name.type.struct.maniascript
#                                                   ^ source.maniascript meta.main.maniascript meta.block.maniascript meta.struct.maniascript meta.struct.maniascript
#                                                    ^ source.maniascript meta.main.maniascript meta.block.maniascript meta.struct.maniascript meta.struct.maniascript punctuation.definition.struct.begin.maniascript
#                                                     ^ source.maniascript meta.main.maniascript meta.block.maniascript meta.struct.maniascript meta.struct.maniascript
#                                                      ^^^^ source.maniascript meta.main.maniascript meta.block.maniascript meta.struct.maniascript meta.struct.maniascript variable.other.struct.member.maniascript
#                                                          ^ source.maniascript meta.main.maniascript meta.block.maniascript meta.struct.maniascript meta.struct.maniascript
#                                                           ^ source.maniascript meta.main.maniascript meta.block.maniascript meta.struct.maniascript meta.struct.maniascript keyword.operator.assignment.maniascript
#                                                            ^ source.maniascript meta.main.maniascript meta.block.maniascript meta.struct.maniascript meta.struct.maniascript
#                                                             ^ source.maniascript meta.main.maniascript meta.block.maniascript meta.struct.maniascript meta.struct.maniascript constant.numeric.integer.maniascript
#                                                              ^ source.maniascript meta.main.maniascript meta.block.maniascript meta.struct.maniascript meta.struct.maniascript punctuation.separator.comma.maniascript
#                                                               ^ source.maniascript meta.main.maniascript meta.block.maniascript meta.struct.maniascript meta.struct.maniascript
#                                                                ^^^^ source.maniascript meta.main.maniascript meta.block.maniascript meta.struct.maniascript meta.struct.maniascript variable.other.struct.member.maniascript
#                                                                    ^ source.maniascript meta.main.maniascript meta.block.maniascript meta.struct.maniascript meta.struct.maniascript
#                                                                     ^ source.maniascript meta.main.maniascript meta.block.maniascript meta.struct.maniascript meta.struct.maniascript keyword.operator.assignment.maniascript
#                                                                      ^ source.maniascript meta.main.maniascript meta.block.maniascript meta.struct.maniascript meta.struct.maniascript
#                                                                       ^^^^^^ source.maniascript meta.main.maniascript meta.block.maniascript meta.struct.maniascript meta.struct.maniascript meta.struct.maniascript entity.name.type.struct.maniascript
#                                                                             ^ source.maniascript meta.main.maniascript meta.block.maniascript meta.struct.maniascript meta.struct.maniascript meta.struct.maniascript
#                                                                              ^ source.maniascript meta.main.maniascript meta.block.maniascript meta.struct.maniascript meta.struct.maniascript meta.struct.maniascript punctuation.definition.struct.begin.maniascript
#                                                                               ^ source.maniascript meta.main.maniascript meta.block.maniascript meta.struct.maniascript meta.struct.maniascript meta.struct.maniascript
#                                                                                ^^^^ source.maniascript meta.main.maniascript meta.block.maniascript meta.struct.maniascript meta.struct.maniascript meta.struct.maniascript variable.other.struct.member.maniascript
#                                                                                    ^ source.maniascript meta.main.maniascript meta.block.maniascript meta.struct.maniascript meta.struct.maniascript meta.struct.maniascript
#                                                                                     ^ source.maniascript meta.main.maniascript meta.block.maniascript meta.struct.maniascript meta.struct.maniascript meta.struct.maniascript keyword.operator.assignment.maniascript
#                                                                                      ^ source.maniascript meta.main.maniascript meta.block.maniascript meta.struct.maniascript meta.struct.maniascript meta.struct.maniascript
#                                                                                       ^^^ source.maniascript meta.main.maniascript meta.block.maniascript meta.struct.maniascript meta.struct.maniascript meta.struct.maniascript string.quoted.triple.maniascript punctuation.definition.string.begin.maniascript
#                                                                                          ^^^^^^^ source.maniascript meta.main.maniascript meta.block.maniascript meta.struct.maniascript meta.struct.maniascript meta.struct.maniascript string.quoted.triple.maniascript
#                                                                                                 ^^^ source.maniascript meta.main.maniascript meta.block.maniascript meta.struct.maniascript meta.struct.maniascript meta.struct.maniascript string.quoted.triple.maniascript punctuation.definition.string.end.maniascript
#                                                                                                    ^ source.maniascript meta.main.maniascript meta.block.maniascript meta.struct.maniascript meta.struct.maniascript meta.struct.maniascript
#                                                                                                     ^ source.maniascript meta.main.maniascript meta.block.maniascript meta.struct.maniascript meta.struct.maniascript meta.struct.maniascript punctuation.definition.struct.end.maniascript
#                                                                                                      ^ source.maniascript meta.main.maniascript meta.block.maniascript meta.struct.maniascript meta.struct.maniascript
#                                                                                                       ^ source.maniascript meta.main.maniascript meta.block.maniascript meta.struct.maniascript meta.struct.maniascript punctuation.definition.struct.end.maniascript
#                                                                                                        ^ source.maniascript meta.main.maniascript meta.block.maniascript meta.struct.maniascript punctuation.separator.comma.maniascript
#                                                                                                         ^ source.maniascript meta.main.maniascript meta.block.maniascript meta.struct.maniascript
#                                                                                                          ^^^^ source.maniascript meta.main.maniascript meta.block.maniascript meta.struct.maniascript variable.other.struct.member.maniascript
#                                                                                                              ^ source.maniascript meta.main.maniascript meta.block.maniascript meta.struct.maniascript
#                                                                                                               ^ source.maniascript meta.main.maniascript meta.block.maniascript meta.struct.maniascript keyword.operator.assignment.maniascript
#                                                                                                                ^ source.maniascript meta.main.maniascript meta.block.maniascript meta.struct.maniascript
#                                                                                                                 ^^ source.maniascript meta.main.maniascript meta.block.maniascript meta.struct.maniascript constant.numeric.integer.maniascript
#                                                                                                                   ^ source.maniascript meta.main.maniascript meta.block.maniascript meta.struct.maniascript punctuation.separator.comma.maniascript
#                                                                                                                    ^ source.maniascript meta.main.maniascript meta.block.maniascript meta.struct.maniascript
#                                                                                                                     ^^^^ source.maniascript meta.main.maniascript meta.block.maniascript meta.struct.maniascript variable.other.struct.member.maniascript
#                                                                                                                         ^ source.maniascript meta.main.maniascript meta.block.maniascript meta.struct.maniascript
#                                                                                                                          ^ source.maniascript meta.main.maniascript meta.block.maniascript meta.struct.maniascript keyword.operator.assignment.maniascript
#                                                                                                                           ^ source.maniascript meta.main.maniascript meta.block.maniascript meta.struct.maniascript
#                                                                                                                            ^ source.maniascript meta.main.maniascript meta.block.maniascript meta.struct.maniascript string.quoted.double.maniascript punctuation.definition.string.begin.maniascript
#                                                                                                                             ^^^^^^ source.maniascript meta.main.maniascript meta.block.maniascript meta.struct.maniascript string.quoted.double.maniascript
#                                                                                                                                   ^ source.maniascript meta.main.maniascript meta.block.maniascript meta.struct.maniascript string.quoted.double.maniascript punctuation.definition.string.end.maniascript
#                                                                                                                                    ^ source.maniascript meta.main.maniascript meta.block.maniascript meta.struct.maniascript
#                                                                                                                                     ^ source.maniascript meta.main.maniascript meta.block.maniascript meta.struct.maniascript punctuation.definition.struct.end.maniascript
#                                                                                                                                      ^ source.maniascript meta.main.maniascript meta.block.maniascript punctuation.terminator.statement.maniascript
>  Test::K_Test {
#^^ source.maniascript meta.main.maniascript meta.block.maniascript
#  ^^^^ source.maniascript meta.main.maniascript meta.block.maniascript meta.struct.maniascript variable.other.namespace.maniascript
#      ^^ source.maniascript meta.main.maniascript meta.block.maniascript meta.struct.maniascript punctuation.separator.coloncolon.maniascript
#        ^^^^^^ source.maniascript meta.main.maniascript meta.block.maniascript meta.struct.maniascript entity.name.type.struct.maniascript
#              ^ source.maniascript meta.main.maniascript meta.block.maniascript meta.struct.maniascript
#               ^ source.maniascript meta.main.maniascript meta.block.maniascript meta.struct.maniascript punctuation.definition.struct.begin.maniascript
>		Value = 0
#^^ source.maniascript meta.main.maniascript meta.block.maniascript meta.struct.maniascript
#  ^^^^^ source.maniascript meta.main.maniascript meta.block.maniascript meta.struct.maniascript variable.other.struct.member.maniascript
#       ^ source.maniascript meta.main.maniascript meta.block.maniascript meta.struct.maniascript
#        ^ source.maniascript meta.main.maniascript meta.block.maniascript meta.struct.maniascript keyword.operator.assignment.maniascript
#         ^ source.maniascript meta.main.maniascript meta.block.maniascript meta.struct.maniascript
#          ^ source.maniascript meta.main.maniascript meta.block.maniascript meta.struct.maniascript constant.numeric.integer.maniascript
>	};
#^ source.maniascript meta.main.maniascript meta.block.maniascript meta.struct.maniascript
# ^ source.maniascript meta.main.maniascript meta.block.maniascript meta.struct.maniascript punctuation.definition.struct.end.maniascript
#  ^ source.maniascript meta.main.maniascript meta.block.maniascript punctuation.terminator.statement.maniascript
>  K_Test { .A = 0, B = 1, . C = 2 };
#^^ source.maniascript meta.main.maniascript meta.block.maniascript
#  ^^^^^^ source.maniascript meta.main.maniascript meta.block.maniascript meta.struct.maniascript entity.name.type.struct.maniascript
#        ^ source.maniascript meta.main.maniascript meta.block.maniascript meta.struct.maniascript
#         ^ source.maniascript meta.main.maniascript meta.block.maniascript meta.struct.maniascript punctuation.definition.struct.begin.maniascript
#          ^ source.maniascript meta.main.maniascript meta.block.maniascript meta.struct.maniascript
#           ^ source.maniascript meta.main.maniascript meta.block.maniascript meta.struct.maniascript punctuation.accessor.maniascript
#            ^ source.maniascript meta.main.maniascript meta.block.maniascript meta.struct.maniascript variable.other.struct.member.maniascript
#             ^ source.maniascript meta.main.maniascript meta.block.maniascript meta.struct.maniascript
#              ^ source.maniascript meta.main.maniascript meta.block.maniascript meta.struct.maniascript keyword.operator.assignment.maniascript
#               ^ source.maniascript meta.main.maniascript meta.block.maniascript meta.struct.maniascript
#                ^ source.maniascript meta.main.maniascript meta.block.maniascript meta.struct.maniascript constant.numeric.integer.maniascript
#                 ^ source.maniascript meta.main.maniascript meta.block.maniascript meta.struct.maniascript punctuation.separator.comma.maniascript
#                  ^ source.maniascript meta.main.maniascript meta.block.maniascript meta.struct.maniascript
#                   ^ source.maniascript meta.main.maniascript meta.block.maniascript meta.struct.maniascript variable.other.struct.member.maniascript
#                    ^ source.maniascript meta.main.maniascript meta.block.maniascript meta.struct.maniascript
#                     ^ source.maniascript meta.main.maniascript meta.block.maniascript meta.struct.maniascript keyword.operator.assignment.maniascript
#                      ^ source.maniascript meta.main.maniascript meta.block.maniascript meta.struct.maniascript
#                       ^ source.maniascript meta.main.maniascript meta.block.maniascript meta.struct.maniascript constant.numeric.integer.maniascript
#                        ^ source.maniascript meta.main.maniascript meta.block.maniascript meta.struct.maniascript punctuation.separator.comma.maniascript
#                         ^ source.maniascript meta.main.maniascript meta.block.maniascript meta.struct.maniascript
#                          ^ source.maniascript meta.main.maniascript meta.block.maniascript meta.struct.maniascript punctuation.accessor.maniascript
#                           ^ source.maniascript meta.main.maniascript meta.block.maniascript meta.struct.maniascript
#                            ^ source.maniascript meta.main.maniascript meta.block.maniascript meta.struct.maniascript variable.other.struct.member.maniascript
#                             ^ source.maniascript meta.main.maniascript meta.block.maniascript meta.struct.maniascript
#                              ^ source.maniascript meta.main.maniascript meta.block.maniascript meta.struct.maniascript keyword.operator.assignment.maniascript
#                               ^ source.maniascript meta.main.maniascript meta.block.maniascript meta.struct.maniascript
#                                ^ source.maniascript meta.main.maniascript meta.block.maniascript meta.struct.maniascript constant.numeric.integer.maniascript
#                                 ^ source.maniascript meta.main.maniascript meta.block.maniascript meta.struct.maniascript
#                                  ^ source.maniascript meta.main.maniascript meta.block.maniascript meta.struct.maniascript punctuation.definition.struct.end.maniascript
#                                   ^ source.maniascript meta.main.maniascript meta.block.maniascript punctuation.terminator.statement.maniascript
>}
#^ source.maniascript meta.main.maniascript meta.block.maniascript punctuation.curlybrace.close.maniascript
>