>main() {
#^^^^ source.maniascript meta.main.maniascript support.function.maniascript
#    ^ source.maniascript meta.main.maniascript meta.definition.parameters.maniascript punctuation.parenthesis.open.maniascript
#     ^ source.maniascript meta.main.maniascript meta.definition.parameters.maniascript punctuation.parenthesis.close.maniascript
#      ^ source.maniascript meta.main.maniascript
#       ^ source.maniascript meta.main.maniascript meta.block.maniascript punctuation.curlybrace.open.maniascript
>  dump(1 + 1);
#^^ source.maniascript meta.main.maniascript meta.block.maniascript
#  ^^^^ source.maniascript meta.main.maniascript meta.block.maniascript meta.function-call.maniascript support.function.maniascript
#      ^ source.maniascript meta.main.maniascript meta.block.maniascript meta.function-call.maniascript punctuation.parenthesis.open.maniascript
#       ^ source.maniascript meta.main.maniascript meta.block.maniascript meta.function-call.maniascript constant.numeric.integer.maniascript
#        ^ source.maniascript meta.main.maniascript meta.block.maniascript meta.function-call.maniascript
#         ^ source.maniascript meta.main.maniascript meta.block.maniascript meta.function-call.maniascript keyword.operator.arithmetic.maniascript
#          ^ source.maniascript meta.main.maniascript meta.block.maniascript meta.function-call.maniascript
#           ^ source.maniascript meta.main.maniascript meta.block.maniascript meta.function-call.maniascript constant.numeric.integer.maniascript
#            ^ source.maniascript meta.main.maniascript meta.block.maniascript meta.function-call.maniascript punctuation.parenthesis.close.maniascript
#             ^ source.maniascript meta.main.maniascript meta.block.maniascript punctuation.terminator.statement.maniascript
>  dumptype(
#^^ source.maniascript meta.main.maniascript meta.block.maniascript
#  ^^^^^^^^ source.maniascript meta.main.maniascript meta.block.maniascript meta.function-call.maniascript support.function.maniascript
#          ^ source.maniascript meta.main.maniascript meta.block.maniascript meta.function-call.maniascript punctuation.parenthesis.open.maniascript
>    Test()
#^^^^ source.maniascript meta.main.maniascript meta.block.maniascript meta.function-call.maniascript
#    ^^^^ source.maniascript meta.main.maniascript meta.block.maniascript meta.function-call.maniascript meta.type.name.maniascript storage.type.maniascript
#        ^ source.maniascript meta.main.maniascript meta.block.maniascript meta.function-call.maniascript
#         ^ source.maniascript meta.main.maniascript meta.block.maniascript meta.function-call.maniascript punctuation.parenthesis.close.maniascript
>  );
#^^^ source.maniascript meta.main.maniascript meta.block.maniascript
#   ^ source.maniascript meta.main.maniascript meta.block.maniascript punctuation.terminator.statement.maniascript
>  dump
#^^ source.maniascript meta.main.maniascript meta.block.maniascript
#  ^^^^ source.maniascript meta.main.maniascript meta.block.maniascript meta.function-call.maniascript support.function.maniascript
>  // Comment
#^^ source.maniascript meta.main.maniascript meta.block.maniascript meta.function-call.maniascript
#  ^^ source.maniascript meta.main.maniascript meta.block.maniascript meta.function-call.maniascript comment.line.double-slash.maniascript punctuation.definition.comment.maniascript
#    ^^^^^^^^ source.maniascript meta.main.maniascript meta.block.maniascript meta.function-call.maniascript comment.line.double-slash.maniascript
>  (
#^^ source.maniascript meta.main.maniascript meta.block.maniascript meta.function-call.maniascript
#  ^ source.maniascript meta.main.maniascript meta.block.maniascript meta.function-call.maniascript punctuation.parenthesis.open.maniascript
>    // Comment
#^^^^ source.maniascript meta.main.maniascript meta.block.maniascript meta.function-call.maniascript
#    ^^ source.maniascript meta.main.maniascript meta.block.maniascript meta.function-call.maniascript comment.line.double-slash.maniascript punctuation.definition.comment.maniascript
#      ^^^^^^^^ source.maniascript meta.main.maniascript meta.block.maniascript meta.function-call.maniascript comment.line.double-slash.maniascript
>    Test()
#^^^^ source.maniascript meta.main.maniascript meta.block.maniascript meta.function-call.maniascript
#    ^^^^ source.maniascript meta.main.maniascript meta.block.maniascript meta.function-call.maniascript meta.function-call.maniascript entity.name.function.maniascript
#        ^ source.maniascript meta.main.maniascript meta.block.maniascript meta.function-call.maniascript meta.function-call.maniascript punctuation.parenthesis.open.maniascript
#         ^ source.maniascript meta.main.maniascript meta.block.maniascript meta.function-call.maniascript meta.function-call.maniascript punctuation.parenthesis.close.maniascript
>    // Comment
#^^^^ source.maniascript meta.main.maniascript meta.block.maniascript meta.function-call.maniascript
#    ^^ source.maniascript meta.main.maniascript meta.block.maniascript meta.function-call.maniascript comment.line.double-slash.maniascript punctuation.definition.comment.maniascript
#      ^^^^^^^^ source.maniascript meta.main.maniascript meta.block.maniascript meta.function-call.maniascript comment.line.double-slash.maniascript
>  )
#^^ source.maniascript meta.main.maniascript meta.block.maniascript meta.function-call.maniascript
#  ^ source.maniascript meta.main.maniascript meta.block.maniascript meta.function-call.maniascript punctuation.parenthesis.close.maniascript
>  // Comment
#^^ source.maniascript meta.main.maniascript meta.block.maniascript
#  ^^ source.maniascript meta.main.maniascript meta.block.maniascript comment.line.double-slash.maniascript punctuation.definition.comment.maniascript
#    ^^^^^^^^ source.maniascript meta.main.maniascript meta.block.maniascript comment.line.double-slash.maniascript
>  ;
#^^ source.maniascript meta.main.maniascript meta.block.maniascript
#  ^ source.maniascript meta.main.maniascript meta.block.maniascript punctuation.terminator.statement.maniascript
>}
#^ source.maniascript meta.main.maniascript meta.block.maniascript punctuation.curlybrace.close.maniascript
>