>main() {
#^^^^ source.maniascript meta.main.maniascript support.function.maniascript
#    ^ source.maniascript meta.main.maniascript meta.definition.parameters.maniascript punctuation.parenthesis.open.maniascript
#     ^ source.maniascript meta.main.maniascript meta.definition.parameters.maniascript punctuation.parenthesis.close.maniascript
#      ^ source.maniascript meta.main.maniascript
#       ^ source.maniascript meta.main.maniascript meta.block.maniascript punctuation.curlybrace.open.maniascript
>  1.;
#^^ source.maniascript meta.main.maniascript meta.block.maniascript
#  ^^ source.maniascript meta.main.maniascript meta.block.maniascript constant.numeric.decimal.maniascript
#    ^ source.maniascript meta.main.maniascript meta.block.maniascript punctuation.terminator.statement.maniascript
>  .2;
#^^ source.maniascript meta.main.maniascript meta.block.maniascript
#  ^^ source.maniascript meta.main.maniascript meta.block.maniascript constant.numeric.decimal.maniascript
#    ^ source.maniascript meta.main.maniascript meta.block.maniascript punctuation.terminator.statement.maniascript
>  3.4e5;
#^^ source.maniascript meta.main.maniascript meta.block.maniascript
#  ^^^^^ source.maniascript meta.main.maniascript meta.block.maniascript constant.numeric.decimal.maniascript
#       ^ source.maniascript meta.main.maniascript meta.block.maniascript punctuation.terminator.statement.maniascript
>  .6e7;
#^^ source.maniascript meta.main.maniascript meta.block.maniascript
#  ^^^^ source.maniascript meta.main.maniascript meta.block.maniascript constant.numeric.decimal.maniascript
#      ^ source.maniascript meta.main.maniascript meta.block.maniascript punctuation.terminator.statement.maniascript
>  8.e9;
#^^ source.maniascript meta.main.maniascript meta.block.maniascript
#  ^^^^ source.maniascript meta.main.maniascript meta.block.maniascript constant.numeric.decimal.maniascript
#      ^ source.maniascript meta.main.maniascript meta.block.maniascript punctuation.terminator.statement.maniascript
>  -10.;
#^^ source.maniascript meta.main.maniascript meta.block.maniascript
#  ^ source.maniascript meta.main.maniascript meta.block.maniascript constant.numeric.decimal.maniascript keyword.operator.arithmetic.maniascript
#   ^^^ source.maniascript meta.main.maniascript meta.block.maniascript constant.numeric.decimal.maniascript
#      ^ source.maniascript meta.main.maniascript meta.block.maniascript punctuation.terminator.statement.maniascript
>  11.12e-13;
#^^ source.maniascript meta.main.maniascript meta.block.maniascript
#  ^^^^^^^^^ source.maniascript meta.main.maniascript meta.block.maniascript constant.numeric.decimal.maniascript
#           ^ source.maniascript meta.main.maniascript meta.block.maniascript punctuation.terminator.statement.maniascript
>
>  1;
#^^ source.maniascript meta.main.maniascript meta.block.maniascript
#  ^ source.maniascript meta.main.maniascript meta.block.maniascript constant.numeric.integer.maniascript
#   ^ source.maniascript meta.main.maniascript meta.block.maniascript punctuation.terminator.statement.maniascript
>  2e3;
#^^ source.maniascript meta.main.maniascript meta.block.maniascript
#  ^^^ source.maniascript meta.main.maniascript meta.block.maniascript constant.numeric.integer.maniascript
#     ^ source.maniascript meta.main.maniascript meta.block.maniascript punctuation.terminator.statement.maniascript
>  -4;
#^^ source.maniascript meta.main.maniascript meta.block.maniascript
#  ^ source.maniascript meta.main.maniascript meta.block.maniascript constant.numeric.integer.maniascript keyword.operator.arithmetic.maniascript
#   ^ source.maniascript meta.main.maniascript meta.block.maniascript constant.numeric.integer.maniascript
#    ^ source.maniascript meta.main.maniascript meta.block.maniascript punctuation.terminator.statement.maniascript
>  5e-6;
#^^ source.maniascript meta.main.maniascript meta.block.maniascript
#  ^^^^ source.maniascript meta.main.maniascript meta.block.maniascript constant.numeric.integer.maniascript
#      ^ source.maniascript meta.main.maniascript meta.block.maniascript punctuation.terminator.statement.maniascript
>
>  True;
#^^ source.maniascript meta.main.maniascript meta.block.maniascript
#  ^^^^ source.maniascript meta.main.maniascript meta.block.maniascript constant.language.boolean.true.maniascript
#      ^ source.maniascript meta.main.maniascript meta.block.maniascript punctuation.terminator.statement.maniascript
>  False;
#^^ source.maniascript meta.main.maniascript meta.block.maniascript
#  ^^^^^ source.maniascript meta.main.maniascript meta.block.maniascript constant.language.boolean.false.maniascript
#       ^ source.maniascript meta.main.maniascript meta.block.maniascript punctuation.terminator.statement.maniascript
>
>  Null;
#^^ source.maniascript meta.main.maniascript meta.block.maniascript
#  ^^^^ source.maniascript meta.main.maniascript meta.block.maniascript constant.language.null.maniascript
#      ^ source.maniascript meta.main.maniascript meta.block.maniascript punctuation.terminator.statement.maniascript
>
>  NullId;
#^^ source.maniascript meta.main.maniascript meta.block.maniascript
#  ^^^^^^ source.maniascript meta.main.maniascript meta.block.maniascript constant.language.nullid.maniascript
#        ^ source.maniascript meta.main.maniascript meta.block.maniascript punctuation.terminator.statement.maniascript
>
>  "Test";
#^^ source.maniascript meta.main.maniascript meta.block.maniascript
#  ^ source.maniascript meta.main.maniascript meta.block.maniascript string.quoted.double.maniascript punctuation.definition.string.begin.maniascript
#   ^^^^ source.maniascript meta.main.maniascript meta.block.maniascript string.quoted.double.maniascript
#       ^ source.maniascript meta.main.maniascript meta.block.maniascript string.quoted.double.maniascript punctuation.definition.string.end.maniascript
#        ^ source.maniascript meta.main.maniascript meta.block.maniascript punctuation.terminator.statement.maniascript
>  """Test""";
#^^ source.maniascript meta.main.maniascript meta.block.maniascript
#  ^^^ source.maniascript meta.main.maniascript meta.block.maniascript string.quoted.triple.maniascript punctuation.definition.string.begin.maniascript
#     ^^^^ source.maniascript meta.main.maniascript meta.block.maniascript string.quoted.triple.maniascript
#         ^^^ source.maniascript meta.main.maniascript meta.block.maniascript string.quoted.triple.maniascript punctuation.definition.string.end.maniascript
#            ^ source.maniascript meta.main.maniascript meta.block.maniascript punctuation.terminator.statement.maniascript
>  """Test {{{123}}} Test""";
#^^ source.maniascript meta.main.maniascript meta.block.maniascript
#  ^^^ source.maniascript meta.main.maniascript meta.block.maniascript string.quoted.triple.maniascript punctuation.definition.string.begin.maniascript
#     ^^^^^ source.maniascript meta.main.maniascript meta.block.maniascript string.quoted.triple.maniascript
#          ^^^ source.maniascript meta.main.maniascript meta.block.maniascript string.quoted.triple.maniascript meta.string.triple.expression.maniascript punctuation.definition.template-expression.begin.maniascript
#             ^^^ source.maniascript meta.main.maniascript meta.block.maniascript string.quoted.triple.maniascript meta.string.triple.expression.maniascript meta.embedded.line.maniascript constant.numeric.integer.maniascript
#                ^^^ source.maniascript meta.main.maniascript meta.block.maniascript string.quoted.triple.maniascript meta.string.triple.expression.maniascript punctuation.definition.template-expression.end.maniascript
#                   ^^^^^ source.maniascript meta.main.maniascript meta.block.maniascript string.quoted.triple.maniascript
#                        ^^^ source.maniascript meta.main.maniascript meta.block.maniascript string.quoted.triple.maniascript punctuation.definition.string.end.maniascript
#                           ^ source.maniascript meta.main.maniascript meta.block.maniascript punctuation.terminator.statement.maniascript
>  _("Test");
#^^ source.maniascript meta.main.maniascript meta.block.maniascript
#  ^ source.maniascript meta.main.maniascript meta.block.maniascript string.translate.maniascript punctuation.definition.translate.begin.maniascript support.function.translate.maniascript
#   ^ source.maniascript meta.main.maniascript meta.block.maniascript string.translate.maniascript punctuation.definition.translate.begin.maniascript
#    ^ source.maniascript meta.main.maniascript meta.block.maniascript string.translate.maniascript string.quoted.double.maniascript punctuation.definition.string.begin.maniascript
#     ^^^^ source.maniascript meta.main.maniascript meta.block.maniascript string.translate.maniascript string.quoted.double.maniascript
#         ^ source.maniascript meta.main.maniascript meta.block.maniascript string.translate.maniascript string.quoted.double.maniascript punctuation.definition.string.end.maniascript
#          ^ source.maniascript meta.main.maniascript meta.block.maniascript string.translate.maniascript punctuation.definition.translate.end.maniascript
#           ^ source.maniascript meta.main.maniascript meta.block.maniascript punctuation.terminator.statement.maniascript
>  _("""Test""");
#^^ source.maniascript meta.main.maniascript meta.block.maniascript
#  ^ source.maniascript meta.main.maniascript meta.block.maniascript string.translate.maniascript punctuation.definition.translate.begin.maniascript support.function.translate.maniascript
#   ^ source.maniascript meta.main.maniascript meta.block.maniascript string.translate.maniascript punctuation.definition.translate.begin.maniascript
#    ^^^ source.maniascript meta.main.maniascript meta.block.maniascript string.translate.maniascript string.quoted.triple.maniascript punctuation.definition.string.begin.maniascript
#       ^^^^ source.maniascript meta.main.maniascript meta.block.maniascript string.translate.maniascript string.quoted.triple.maniascript
#           ^^^ source.maniascript meta.main.maniascript meta.block.maniascript string.translate.maniascript string.quoted.triple.maniascript punctuation.definition.string.end.maniascript
#              ^ source.maniascript meta.main.maniascript meta.block.maniascript string.translate.maniascript punctuation.definition.translate.end.maniascript
#               ^ source.maniascript meta.main.maniascript meta.block.maniascript punctuation.terminator.statement.maniascript
>  "Test \r \n \t \\ \" Test";
#^^ source.maniascript meta.main.maniascript meta.block.maniascript
#  ^ source.maniascript meta.main.maniascript meta.block.maniascript string.quoted.double.maniascript punctuation.definition.string.begin.maniascript
#   ^^^^^ source.maniascript meta.main.maniascript meta.block.maniascript string.quoted.double.maniascript
#        ^^ source.maniascript meta.main.maniascript meta.block.maniascript string.quoted.double.maniascript constant.character.escape.maniascript
#          ^ source.maniascript meta.main.maniascript meta.block.maniascript string.quoted.double.maniascript
#           ^^ source.maniascript meta.main.maniascript meta.block.maniascript string.quoted.double.maniascript constant.character.escape.maniascript
#             ^ source.maniascript meta.main.maniascript meta.block.maniascript string.quoted.double.maniascript
#              ^^ source.maniascript meta.main.maniascript meta.block.maniascript string.quoted.double.maniascript constant.character.escape.maniascript
#                ^ source.maniascript meta.main.maniascript meta.block.maniascript string.quoted.double.maniascript
#                 ^^ source.maniascript meta.main.maniascript meta.block.maniascript string.quoted.double.maniascript constant.character.escape.maniascript
#                   ^ source.maniascript meta.main.maniascript meta.block.maniascript string.quoted.double.maniascript
#                    ^^ source.maniascript meta.main.maniascript meta.block.maniascript string.quoted.double.maniascript constant.character.escape.maniascript
#                      ^^^^^ source.maniascript meta.main.maniascript meta.block.maniascript string.quoted.double.maniascript
#                           ^ source.maniascript meta.main.maniascript meta.block.maniascript string.quoted.double.maniascript punctuation.definition.string.end.maniascript
#                            ^ source.maniascript meta.main.maniascript meta.block.maniascript punctuation.terminator.statement.maniascript
>
>  CSmPlayer::ESpawnStatus::NotSpawned;
#^^ source.maniascript meta.main.maniascript meta.block.maniascript
#  ^^^^^^^^^ source.maniascript meta.main.maniascript meta.block.maniascript meta.literal.enum.maniascript entity.name.type.class.maniascript
#           ^^ source.maniascript meta.main.maniascript meta.block.maniascript meta.literal.enum.maniascript punctuation.separator.coloncolon.maniascript
#             ^^^^^^^^^^^^ source.maniascript meta.main.maniascript meta.block.maniascript meta.literal.enum.maniascript entity.name.type.enum-name.maniascript
#                         ^^ source.maniascript meta.main.maniascript meta.block.maniascript meta.literal.enum.maniascript punctuation.separator.coloncolon.maniascript
#                           ^^^^^^^^^^ source.maniascript meta.main.maniascript meta.block.maniascript meta.literal.enum.maniascript entity.name.type.enum-value.maniascript
#                                     ^ source.maniascript meta.main.maniascript meta.block.maniascript punctuation.terminator.statement.maniascript
>
>  <1, 2>;
#^^ source.maniascript meta.main.maniascript meta.block.maniascript
#  ^ source.maniascript meta.main.maniascript meta.block.maniascript constant.language.int2.maniascript punctuation.definition.vector.begin.maniascript
#   ^ source.maniascript meta.main.maniascript meta.block.maniascript constant.language.int2.maniascript constant.numeric.integer.maniascript
#    ^ source.maniascript meta.main.maniascript meta.block.maniascript constant.language.int2.maniascript punctuation.separator.comma.maniascript
#     ^ source.maniascript meta.main.maniascript meta.block.maniascript constant.language.int2.maniascript
#      ^ source.maniascript meta.main.maniascript meta.block.maniascript constant.language.int2.maniascript constant.numeric.integer.maniascript
#       ^ source.maniascript meta.main.maniascript meta.block.maniascript constant.language.int2.maniascript punctuation.definition.vector.end.maniascript
#        ^ source.maniascript meta.main.maniascript meta.block.maniascript punctuation.terminator.statement.maniascript
>  <1, 2, 3>;
#^^ source.maniascript meta.main.maniascript meta.block.maniascript
#  ^ source.maniascript meta.main.maniascript meta.block.maniascript constant.language.int3.maniascript punctuation.definition.vector.begin.maniascript
#   ^ source.maniascript meta.main.maniascript meta.block.maniascript constant.language.int3.maniascript constant.numeric.integer.maniascript
#    ^ source.maniascript meta.main.maniascript meta.block.maniascript constant.language.int3.maniascript punctuation.separator.comma.maniascript
#     ^ source.maniascript meta.main.maniascript meta.block.maniascript constant.language.int3.maniascript
#      ^ source.maniascript meta.main.maniascript meta.block.maniascript constant.language.int3.maniascript constant.numeric.integer.maniascript
#       ^ source.maniascript meta.main.maniascript meta.block.maniascript constant.language.int3.maniascript punctuation.separator.comma.maniascript
#        ^ source.maniascript meta.main.maniascript meta.block.maniascript constant.language.int3.maniascript
#         ^ source.maniascript meta.main.maniascript meta.block.maniascript constant.language.int3.maniascript constant.numeric.integer.maniascript
#          ^ source.maniascript meta.main.maniascript meta.block.maniascript constant.language.int3.maniascript punctuation.definition.vector.end.maniascript
#           ^ source.maniascript meta.main.maniascript meta.block.maniascript punctuation.terminator.statement.maniascript
>  <1., 2.>;
#^^ source.maniascript meta.main.maniascript meta.block.maniascript
#  ^ source.maniascript meta.main.maniascript meta.block.maniascript constant.language.vec2.maniascript punctuation.definition.vector.begin.maniascript
#   ^^ source.maniascript meta.main.maniascript meta.block.maniascript constant.language.vec2.maniascript constant.numeric.decimal.maniascript
#     ^ source.maniascript meta.main.maniascript meta.block.maniascript constant.language.vec2.maniascript punctuation.separator.comma.maniascript
#      ^ source.maniascript meta.main.maniascript meta.block.maniascript constant.language.vec2.maniascript
#       ^^ source.maniascript meta.main.maniascript meta.block.maniascript constant.language.vec2.maniascript constant.numeric.decimal.maniascript
#         ^ source.maniascript meta.main.maniascript meta.block.maniascript constant.language.vec2.maniascript punctuation.definition.vector.end.maniascript
#          ^ source.maniascript meta.main.maniascript meta.block.maniascript punctuation.terminator.statement.maniascript
>  <1., 2., 3.>;
#^^ source.maniascript meta.main.maniascript meta.block.maniascript
#  ^ source.maniascript meta.main.maniascript meta.block.maniascript constant.language.vec3.maniascript punctuation.definition.vector.begin.maniascript
#   ^^ source.maniascript meta.main.maniascript meta.block.maniascript constant.language.vec3.maniascript constant.numeric.decimal.maniascript
#     ^ source.maniascript meta.main.maniascript meta.block.maniascript constant.language.vec3.maniascript punctuation.separator.comma.maniascript
#      ^ source.maniascript meta.main.maniascript meta.block.maniascript constant.language.vec3.maniascript
#       ^^ source.maniascript meta.main.maniascript meta.block.maniascript constant.language.vec3.maniascript constant.numeric.decimal.maniascript
#         ^ source.maniascript meta.main.maniascript meta.block.maniascript constant.language.vec3.maniascript punctuation.separator.comma.maniascript
#          ^ source.maniascript meta.main.maniascript meta.block.maniascript constant.language.vec3.maniascript
#           ^^ source.maniascript meta.main.maniascript meta.block.maniascript constant.language.vec3.maniascript constant.numeric.decimal.maniascript
#             ^ source.maniascript meta.main.maniascript meta.block.maniascript constant.language.vec3.maniascript punctuation.definition.vector.end.maniascript
#              ^ source.maniascript meta.main.maniascript meta.block.maniascript punctuation.terminator.statement.maniascript
>
>  <1, 2.>;
#^^ source.maniascript meta.main.maniascript meta.block.maniascript
#  ^ source.maniascript meta.main.maniascript meta.block.maniascript constant.language.int2.maniascript punctuation.definition.vector.begin.maniascript
#   ^ source.maniascript meta.main.maniascript meta.block.maniascript constant.language.int2.maniascript constant.numeric.integer.maniascript
#    ^ source.maniascript meta.main.maniascript meta.block.maniascript constant.language.int2.maniascript punctuation.separator.comma.maniascript
#     ^ source.maniascript meta.main.maniascript meta.block.maniascript constant.language.int2.maniascript
#      ^^ source.maniascript meta.main.maniascript meta.block.maniascript constant.language.int2.maniascript invalid.illegal.decimal.maniascript
#        ^ source.maniascript meta.main.maniascript meta.block.maniascript constant.language.int2.maniascript punctuation.definition.vector.end.maniascript
#         ^ source.maniascript meta.main.maniascript meta.block.maniascript punctuation.terminator.statement.maniascript
>  <1, 2., 3.>;
#^^ source.maniascript meta.main.maniascript meta.block.maniascript
#  ^ source.maniascript meta.main.maniascript meta.block.maniascript constant.language.int3.maniascript punctuation.definition.vector.begin.maniascript
#   ^ source.maniascript meta.main.maniascript meta.block.maniascript constant.language.int3.maniascript constant.numeric.integer.maniascript
#    ^ source.maniascript meta.main.maniascript meta.block.maniascript constant.language.int3.maniascript punctuation.separator.comma.maniascript
#     ^ source.maniascript meta.main.maniascript meta.block.maniascript constant.language.int3.maniascript
#      ^^ source.maniascript meta.main.maniascript meta.block.maniascript constant.language.int3.maniascript invalid.illegal.decimal.maniascript
#        ^ source.maniascript meta.main.maniascript meta.block.maniascript constant.language.int3.maniascript punctuation.separator.comma.maniascript
#         ^ source.maniascript meta.main.maniascript meta.block.maniascript constant.language.int3.maniascript
#          ^^ source.maniascript meta.main.maniascript meta.block.maniascript constant.language.int3.maniascript invalid.illegal.decimal.maniascript
#            ^ source.maniascript meta.main.maniascript meta.block.maniascript constant.language.int3.maniascript punctuation.definition.vector.end.maniascript
#             ^ source.maniascript meta.main.maniascript meta.block.maniascript punctuation.terminator.statement.maniascript
>  <1., 2>;
#^^ source.maniascript meta.main.maniascript meta.block.maniascript
#  ^ source.maniascript meta.main.maniascript meta.block.maniascript constant.language.vec2.maniascript punctuation.definition.vector.begin.maniascript
#   ^^ source.maniascript meta.main.maniascript meta.block.maniascript constant.language.vec2.maniascript constant.numeric.decimal.maniascript
#     ^ source.maniascript meta.main.maniascript meta.block.maniascript constant.language.vec2.maniascript punctuation.separator.comma.maniascript
#      ^ source.maniascript meta.main.maniascript meta.block.maniascript constant.language.vec2.maniascript
#       ^ source.maniascript meta.main.maniascript meta.block.maniascript constant.language.vec2.maniascript invalid.illegal.integer.maniascript
#        ^ source.maniascript meta.main.maniascript meta.block.maniascript constant.language.vec2.maniascript punctuation.definition.vector.end.maniascript
#         ^ source.maniascript meta.main.maniascript meta.block.maniascript punctuation.terminator.statement.maniascript
>  <1., 2, 3>;
#^^ source.maniascript meta.main.maniascript meta.block.maniascript
#  ^ source.maniascript meta.main.maniascript meta.block.maniascript constant.language.vec3.maniascript punctuation.definition.vector.begin.maniascript
#   ^^ source.maniascript meta.main.maniascript meta.block.maniascript constant.language.vec3.maniascript constant.numeric.decimal.maniascript
#     ^ source.maniascript meta.main.maniascript meta.block.maniascript constant.language.vec3.maniascript punctuation.separator.comma.maniascript
#      ^ source.maniascript meta.main.maniascript meta.block.maniascript constant.language.vec3.maniascript
#       ^ source.maniascript meta.main.maniascript meta.block.maniascript constant.language.vec3.maniascript invalid.illegal.integer.maniascript
#        ^ source.maniascript meta.main.maniascript meta.block.maniascript constant.language.vec3.maniascript punctuation.separator.comma.maniascript
#         ^ source.maniascript meta.main.maniascript meta.block.maniascript constant.language.vec3.maniascript
#          ^ source.maniascript meta.main.maniascript meta.block.maniascript constant.language.vec3.maniascript invalid.illegal.integer.maniascript
#           ^ source.maniascript meta.main.maniascript meta.block.maniascript constant.language.vec3.maniascript punctuation.definition.vector.end.maniascript
#            ^ source.maniascript meta.main.maniascript meta.block.maniascript punctuation.terminator.statement.maniascript
>}
#^ source.maniascript meta.main.maniascript meta.block.maniascript punctuation.curlybrace.close.maniascript
>