>main() {
#^^^^ source.maniascript meta.main.maniascript support.function.maniascript
#    ^ source.maniascript meta.main.maniascript meta.definition.parameters.maniascript punctuation.parenthesis.open.maniascript
#     ^ source.maniascript meta.main.maniascript meta.definition.parameters.maniascript punctuation.parenthesis.close.maniascript
#      ^ source.maniascript meta.main.maniascript
#       ^ source.maniascript meta.main.maniascript meta.block.maniascript punctuation.curlybrace.open.maniascript
>  {}
#^^ source.maniascript meta.main.maniascript meta.block.maniascript
#  ^ source.maniascript meta.main.maniascript meta.block.maniascript meta.block.maniascript punctuation.curlybrace.open.maniascript
#   ^ source.maniascript meta.main.maniascript meta.block.maniascript meta.block.maniascript punctuation.curlybrace.close.maniascript
>  {
#^^ source.maniascript meta.main.maniascript meta.block.maniascript
#  ^ source.maniascript meta.main.maniascript meta.block.maniascript meta.block.maniascript punctuation.curlybrace.open.maniascript
>    declare Integer Test;
#^^^^ source.maniascript meta.main.maniascript meta.block.maniascript meta.block.maniascript
#    ^^^^^^^ source.maniascript meta.main.maniascript meta.block.maniascript meta.block.maniascript meta.definition.variable.maniascript keyword.other.declare.maniascript
#           ^ source.maniascript meta.main.maniascript meta.block.maniascript meta.block.maniascript meta.definition.variable.maniascript
#            ^^^^^^^ source.maniascript meta.main.maniascript meta.block.maniascript meta.block.maniascript meta.definition.variable.maniascript meta.type.name.maniascript storage.type.maniascript
#                   ^ source.maniascript meta.main.maniascript meta.block.maniascript meta.block.maniascript meta.definition.variable.maniascript
#                    ^^^^ source.maniascript meta.main.maniascript meta.block.maniascript meta.block.maniascript meta.definition.variable.maniascript variable.other.readwrite.maniascript
#                        ^ source.maniascript meta.main.maniascript meta.block.maniascript meta.block.maniascript punctuation.terminator.statement.maniascript
>  }
#^^ source.maniascript meta.main.maniascript meta.block.maniascript meta.block.maniascript
#  ^ source.maniascript meta.main.maniascript meta.block.maniascript meta.block.maniascript punctuation.curlybrace.close.maniascript
>}
#^ source.maniascript meta.main.maniascript meta.block.maniascript punctuation.curlybrace.close.maniascript
>