>declare Integer A;
#^^^^^^^ source.maniascript meta.definition.variable.maniascript keyword.other.declare.maniascript
#       ^ source.maniascript meta.definition.variable.maniascript
#        ^^^^^^^ source.maniascript meta.definition.variable.maniascript meta.type.name.maniascript storage.type.maniascript
#               ^ source.maniascript meta.definition.variable.maniascript
#                ^ source.maniascript meta.definition.variable.maniascript variable.other.readwrite.maniascript
#                 ^ source.maniascript punctuation.terminator.statement.maniascript
>declare K_B C;
#^^^^^^^ source.maniascript meta.definition.variable.maniascript keyword.other.declare.maniascript
#       ^ source.maniascript meta.definition.variable.maniascript
#        ^^^ source.maniascript meta.definition.variable.maniascript meta.type.name.maniascript storage.type.maniascript
#           ^ source.maniascript meta.definition.variable.maniascript
#            ^ source.maniascript meta.definition.variable.maniascript variable.other.readwrite.maniascript
#             ^ source.maniascript punctuation.terminator.statement.maniascript
>declare CSmMode D;
#^^^^^^^ source.maniascript meta.definition.variable.maniascript keyword.other.declare.maniascript
#       ^ source.maniascript meta.definition.variable.maniascript
#        ^^^^^^^ source.maniascript meta.definition.variable.maniascript meta.type.name.maniascript storage.type.maniascript
#               ^ source.maniascript meta.definition.variable.maniascript
#                ^ source.maniascript meta.definition.variable.maniascript variable.other.readwrite.maniascript
#                 ^ source.maniascript punctuation.terminator.statement.maniascript
>declare Integer[] E;
#^^^^^^^ source.maniascript meta.definition.variable.maniascript keyword.other.declare.maniascript
#       ^ source.maniascript meta.definition.variable.maniascript
#        ^^^^^^^ source.maniascript meta.definition.variable.maniascript meta.type.name.maniascript storage.type.maniascript
#               ^ source.maniascript meta.definition.variable.maniascript meta.type.name.maniascript punctuation.squarebracket.open.maniascript
#                ^ source.maniascript meta.definition.variable.maniascript meta.type.name.maniascript punctuation.squarebracket.close.maniascript
#                 ^ source.maniascript meta.definition.variable.maniascript
#                  ^ source.maniascript meta.definition.variable.maniascript variable.other.readwrite.maniascript
#                   ^ source.maniascript punctuation.terminator.statement.maniascript
>declare Integer F = 1;
#^^^^^^^ source.maniascript meta.definition.variable.maniascript keyword.other.declare.maniascript
#       ^ source.maniascript meta.definition.variable.maniascript
#        ^^^^^^^ source.maniascript meta.definition.variable.maniascript meta.type.name.maniascript storage.type.maniascript
#               ^ source.maniascript meta.definition.variable.maniascript
#                ^ source.maniascript meta.definition.variable.maniascript variable.other.readwrite.maniascript
#                 ^ source.maniascript meta.definition.variable.maniascript
#                  ^ source.maniascript meta.definition.variable.maniascript keyword.operator.assignment.maniascript
#                   ^ source.maniascript meta.definition.variable.maniascript
#                    ^ source.maniascript meta.definition.variable.maniascript constant.numeric.integer.maniascript
#                     ^ source.maniascript punctuation.terminator.statement.maniascript
>declare G = 1;
#^^^^^^^ source.maniascript meta.definition.variable.maniascript keyword.other.declare.maniascript
#       ^ source.maniascript meta.definition.variable.maniascript
#        ^ source.maniascript meta.definition.variable.maniascript variable.other.readwrite.maniascript
#         ^ source.maniascript meta.definition.variable.maniascript
#          ^ source.maniascript meta.definition.variable.maniascript keyword.operator.assignment.maniascript
#           ^ source.maniascript meta.definition.variable.maniascript
#            ^ source.maniascript meta.definition.variable.maniascript constant.numeric.integer.maniascript
#             ^ source.maniascript punctuation.terminator.statement.maniascript
>declare CSmMode H <=> This;
#^^^^^^^ source.maniascript meta.definition.variable.maniascript keyword.other.declare.maniascript
#       ^ source.maniascript meta.definition.variable.maniascript
#        ^^^^^^^ source.maniascript meta.definition.variable.maniascript meta.type.name.maniascript storage.type.maniascript
#               ^ source.maniascript meta.definition.variable.maniascript
#                ^ source.maniascript meta.definition.variable.maniascript variable.other.readwrite.maniascript
#                 ^ source.maniascript meta.definition.variable.maniascript
#                  ^^^ source.maniascript meta.definition.variable.maniascript keyword.operator.assignment.maniascript
#                     ^ source.maniascript meta.definition.variable.maniascript
#                      ^^^^ source.maniascript meta.definition.variable.maniascript variable.language.this.maniascript
#                          ^ source.maniascript punctuation.terminator.statement.maniascript
>declare I <=> This;
#^^^^^^^ source.maniascript meta.definition.variable.maniascript keyword.other.declare.maniascript
#       ^ source.maniascript meta.definition.variable.maniascript
#        ^ source.maniascript meta.definition.variable.maniascript variable.other.readwrite.maniascript
#         ^ source.maniascript meta.definition.variable.maniascript
#          ^^^ source.maniascript meta.definition.variable.maniascript keyword.operator.assignment.maniascript
#             ^ source.maniascript meta.definition.variable.maniascript
#              ^^^^ source.maniascript meta.definition.variable.maniascript variable.language.this.maniascript
#                  ^ source.maniascript punctuation.terminator.statement.maniascript
>declare J = [1];
#^^^^^^^ source.maniascript meta.definition.variable.maniascript keyword.other.declare.maniascript
#       ^ source.maniascript meta.definition.variable.maniascript
#        ^ source.maniascript meta.definition.variable.maniascript variable.other.readwrite.maniascript
#         ^ source.maniascript meta.definition.variable.maniascript
#          ^ source.maniascript meta.definition.variable.maniascript keyword.operator.assignment.maniascript
#           ^ source.maniascript meta.definition.variable.maniascript
#            ^ source.maniascript meta.definition.variable.maniascript meta.array.expression.maniascript punctuation.squarebracket.open.maniascript
#             ^ source.maniascript meta.definition.variable.maniascript meta.array.expression.maniascript constant.numeric.integer.maniascript
#              ^ source.maniascript meta.definition.variable.maniascript meta.array.expression.maniascript punctuation.squarebracket.close.maniascript
#               ^ source.maniascript punctuation.terminator.statement.maniascript
>declare K = [];
#^^^^^^^ source.maniascript meta.definition.variable.maniascript keyword.other.declare.maniascript
#       ^ source.maniascript meta.definition.variable.maniascript
#        ^ source.maniascript meta.definition.variable.maniascript variable.other.readwrite.maniascript
#         ^ source.maniascript meta.definition.variable.maniascript
#          ^ source.maniascript meta.definition.variable.maniascript keyword.operator.assignment.maniascript
#           ^ source.maniascript meta.definition.variable.maniascript
#            ^ source.maniascript meta.definition.variable.maniascript meta.array.expression.maniascript punctuation.squarebracket.open.maniascript
#             ^ source.maniascript meta.definition.variable.maniascript meta.array.expression.maniascript punctuation.squarebracket.close.maniascript
#              ^ source.maniascript punctuation.terminator.statement.maniascript
>declare L = K_M {};
#^^^^^^^ source.maniascript meta.definition.variable.maniascript keyword.other.declare.maniascript
#       ^ source.maniascript meta.definition.variable.maniascript
#        ^ source.maniascript meta.definition.variable.maniascript variable.other.readwrite.maniascript
#         ^ source.maniascript meta.definition.variable.maniascript
#          ^ source.maniascript meta.definition.variable.maniascript keyword.operator.assignment.maniascript
#           ^ source.maniascript meta.definition.variable.maniascript
#            ^^^ source.maniascript meta.definition.variable.maniascript meta.struct.maniascript entity.name.type.struct.maniascript
#               ^ source.maniascript meta.definition.variable.maniascript meta.struct.maniascript
#                ^ source.maniascript meta.definition.variable.maniascript meta.struct.maniascript punctuation.definition.struct.begin.maniascript
#                 ^ source.maniascript meta.definition.variable.maniascript meta.struct.maniascript punctuation.definition.struct.end.maniascript
#                  ^ source.maniascript punctuation.terminator.statement.maniascript
>declare N = Int3;
#^^^^^^^ source.maniascript meta.definition.variable.maniascript keyword.other.declare.maniascript
#       ^ source.maniascript meta.definition.variable.maniascript
#        ^ source.maniascript meta.definition.variable.maniascript variable.other.readwrite.maniascript
#         ^ source.maniascript meta.definition.variable.maniascript
#          ^ source.maniascript meta.definition.variable.maniascript keyword.operator.assignment.maniascript
#           ^ source.maniascript meta.definition.variable.maniascript
#            ^^^^ source.maniascript meta.definition.variable.maniascript storage.type.primitive.maniascript
#                ^ source.maniascript punctuation.terminator.statement.maniascript
>declare O <=> CSmMode;
#^^^^^^^ source.maniascript meta.definition.variable.maniascript keyword.other.declare.maniascript
#       ^ source.maniascript meta.definition.variable.maniascript
#        ^ source.maniascript meta.definition.variable.maniascript variable.other.readwrite.maniascript
#         ^ source.maniascript meta.definition.variable.maniascript
#          ^^^ source.maniascript meta.definition.variable.maniascript keyword.operator.assignment.maniascript
#             ^ source.maniascript meta.definition.variable.maniascript
#              ^^^^^^^ source.maniascript meta.definition.variable.maniascript variable.other.readwrite.maniascript
#                     ^ source.maniascript punctuation.terminator.statement.maniascript
>declare P = Integer[];
#^^^^^^^ source.maniascript meta.definition.variable.maniascript keyword.other.declare.maniascript
#       ^ source.maniascript meta.definition.variable.maniascript
#        ^ source.maniascript meta.definition.variable.maniascript variable.other.readwrite.maniascript
#         ^ source.maniascript meta.definition.variable.maniascript
#          ^ source.maniascript meta.definition.variable.maniascript keyword.operator.assignment.maniascript
#           ^ source.maniascript meta.definition.variable.maniascript
#            ^^^^^^^ source.maniascript meta.definition.variable.maniascript storage.type.primitive.maniascript
#                   ^ source.maniascript meta.definition.variable.maniascript meta.array.expression.maniascript punctuation.squarebracket.open.maniascript
#                    ^ source.maniascript meta.definition.variable.maniascript meta.array.expression.maniascript punctuation.squarebracket.close.maniascript
#                     ^ source.maniascript punctuation.terminator.statement.maniascript
>declare Integer Q as R;
#^^^^^^^ source.maniascript meta.definition.variable.maniascript keyword.other.declare.maniascript
#       ^ source.maniascript meta.definition.variable.maniascript
#        ^^^^^^^ source.maniascript meta.definition.variable.maniascript meta.type.name.maniascript storage.type.maniascript
#               ^ source.maniascript meta.definition.variable.maniascript
#                ^ source.maniascript meta.definition.variable.maniascript variable.other.readwrite.maniascript
#                 ^ source.maniascript meta.definition.variable.maniascript
#                  ^^ source.maniascript meta.definition.variable.maniascript keyword.operator.expression.as.maniascript
#                    ^ source.maniascript meta.definition.variable.maniascript
#                     ^ source.maniascript meta.definition.variable.maniascript variable.other.readwrite.maniascript
#                      ^ source.maniascript punctuation.terminator.statement.maniascript
>declare S as T = 1;
#^^^^^^^ source.maniascript meta.definition.variable.maniascript keyword.other.declare.maniascript
#       ^ source.maniascript meta.definition.variable.maniascript
#        ^ source.maniascript meta.definition.variable.maniascript variable.other.readwrite.maniascript
#         ^ source.maniascript meta.definition.variable.maniascript
#          ^^ source.maniascript meta.definition.variable.maniascript keyword.operator.expression.as.maniascript
#            ^ source.maniascript meta.definition.variable.maniascript
#             ^ source.maniascript meta.definition.variable.maniascript variable.other.readwrite.maniascript
#              ^ source.maniascript meta.definition.variable.maniascript
#               ^ source.maniascript meta.definition.variable.maniascript keyword.operator.assignment.maniascript
#                ^ source.maniascript meta.definition.variable.maniascript
#                 ^ source.maniascript meta.definition.variable.maniascript constant.numeric.integer.maniascript
#                  ^ source.maniascript punctuation.terminator.statement.maniascript
>declare Integer U for This;
#^^^^^^^ source.maniascript meta.definition.variable.maniascript keyword.other.declare.maniascript
#       ^ source.maniascript meta.definition.variable.maniascript
#        ^^^^^^^ source.maniascript meta.definition.variable.maniascript meta.type.name.maniascript storage.type.maniascript
#               ^ source.maniascript meta.definition.variable.maniascript
#                ^ source.maniascript meta.definition.variable.maniascript variable.other.readwrite.maniascript
#                 ^ source.maniascript meta.definition.variable.maniascript
#                  ^^^ source.maniascript meta.definition.variable.maniascript keyword.other.for.maniascript
#                     ^ source.maniascript meta.definition.variable.maniascript
#                      ^^^^ source.maniascript meta.definition.variable.maniascript variable.language.this.maniascript
#                          ^ source.maniascript punctuation.terminator.statement.maniascript
>declare V for This = 1;
#^^^^^^^ source.maniascript meta.definition.variable.maniascript keyword.other.declare.maniascript
#       ^ source.maniascript meta.definition.variable.maniascript
#        ^ source.maniascript meta.definition.variable.maniascript variable.other.readwrite.maniascript
#         ^ source.maniascript meta.definition.variable.maniascript
#          ^^^ source.maniascript meta.definition.variable.maniascript keyword.other.for.maniascript
#             ^ source.maniascript meta.definition.variable.maniascript
#              ^^^^ source.maniascript meta.definition.variable.maniascript variable.language.this.maniascript
#                  ^ source.maniascript meta.definition.variable.maniascript
#                   ^ source.maniascript meta.definition.variable.maniascript keyword.operator.assignment.maniascript
#                    ^ source.maniascript meta.definition.variable.maniascript
#                     ^ source.maniascript meta.definition.variable.maniascript constant.numeric.integer.maniascript
#                      ^ source.maniascript punctuation.terminator.statement.maniascript
>declare Integer W for This = 1;
#^^^^^^^ source.maniascript meta.definition.variable.maniascript keyword.other.declare.maniascript
#       ^ source.maniascript meta.definition.variable.maniascript
#        ^^^^^^^ source.maniascript meta.definition.variable.maniascript meta.type.name.maniascript storage.type.maniascript
#               ^ source.maniascript meta.definition.variable.maniascript
#                ^ source.maniascript meta.definition.variable.maniascript variable.other.readwrite.maniascript
#                 ^ source.maniascript meta.definition.variable.maniascript
#                  ^^^ source.maniascript meta.definition.variable.maniascript keyword.other.for.maniascript
#                     ^ source.maniascript meta.definition.variable.maniascript
#                      ^^^^ source.maniascript meta.definition.variable.maniascript variable.language.this.maniascript
#                          ^ source.maniascript meta.definition.variable.maniascript
#                           ^ source.maniascript meta.definition.variable.maniascript keyword.operator.assignment.maniascript
#                            ^ source.maniascript meta.definition.variable.maniascript
#                             ^ source.maniascript meta.definition.variable.maniascript constant.numeric.integer.maniascript
#                              ^ source.maniascript punctuation.terminator.statement.maniascript
>declare Integer X as Y for This = 1;
#^^^^^^^ source.maniascript meta.definition.variable.maniascript keyword.other.declare.maniascript
#       ^ source.maniascript meta.definition.variable.maniascript
#        ^^^^^^^ source.maniascript meta.definition.variable.maniascript meta.type.name.maniascript storage.type.maniascript
#               ^ source.maniascript meta.definition.variable.maniascript
#                ^ source.maniascript meta.definition.variable.maniascript variable.other.readwrite.maniascript
#                 ^ source.maniascript meta.definition.variable.maniascript
#                  ^^ source.maniascript meta.definition.variable.maniascript keyword.operator.expression.as.maniascript
#                    ^ source.maniascript meta.definition.variable.maniascript
#                     ^ source.maniascript meta.definition.variable.maniascript variable.other.readwrite.maniascript
#                      ^ source.maniascript meta.definition.variable.maniascript
#                       ^^^ source.maniascript meta.definition.variable.maniascript keyword.other.for.maniascript
#                          ^ source.maniascript meta.definition.variable.maniascript
#                           ^^^^ source.maniascript meta.definition.variable.maniascript variable.language.this.maniascript
#                               ^ source.maniascript meta.definition.variable.maniascript
#                                ^ source.maniascript meta.definition.variable.maniascript keyword.operator.assignment.maniascript
#                                 ^ source.maniascript meta.definition.variable.maniascript
#                                  ^ source.maniascript meta.definition.variable.maniascript constant.numeric.integer.maniascript
#                                   ^ source.maniascript punctuation.terminator.statement.maniascript
>declare Integer Z for AA.BB(CC[0]);
#^^^^^^^ source.maniascript meta.definition.variable.maniascript keyword.other.declare.maniascript
#       ^ source.maniascript meta.definition.variable.maniascript
#        ^^^^^^^ source.maniascript meta.definition.variable.maniascript meta.type.name.maniascript storage.type.maniascript
#               ^ source.maniascript meta.definition.variable.maniascript
#                ^ source.maniascript meta.definition.variable.maniascript variable.other.readwrite.maniascript
#                 ^ source.maniascript meta.definition.variable.maniascript
#                  ^^^ source.maniascript meta.definition.variable.maniascript keyword.other.for.maniascript
#                     ^ source.maniascript meta.definition.variable.maniascript
#                      ^^ source.maniascript meta.definition.variable.maniascript variable.other.readwrite.maniascript
#                        ^ source.maniascript meta.definition.variable.maniascript punctuation.accessor.maniascript
#                         ^^ source.maniascript meta.definition.variable.maniascript meta.function-call.maniascript entity.name.function.maniascript
#                           ^ source.maniascript meta.definition.variable.maniascript meta.function-call.maniascript punctuation.parenthesis.open.maniascript
#                            ^^ source.maniascript meta.definition.variable.maniascript meta.function-call.maniascript meta.function.parameters.maniascript variable.other.readwrite.maniascript
#                              ^ source.maniascript meta.definition.variable.maniascript meta.function-call.maniascript meta.function.parameters.maniascript meta.array.expression.maniascript punctuation.squarebracket.open.maniascript
#                               ^ source.maniascript meta.definition.variable.maniascript meta.function-call.maniascript meta.function.parameters.maniascript meta.array.expression.maniascript constant.numeric.integer.maniascript
#                                ^ source.maniascript meta.definition.variable.maniascript meta.function-call.maniascript meta.function.parameters.maniascript meta.array.expression.maniascript punctuation.squarebracket.close.maniascript
#                                 ^ source.maniascript meta.definition.variable.maniascript meta.function-call.maniascript punctuation.parenthesis.close.maniascript
#                                  ^ source.maniascript punctuation.terminator.statement.maniascript
>declare netwrite DD = 1;
#^^^^^^^ source.maniascript meta.definition.variable.maniascript keyword.other.declare.maniascript
#       ^ source.maniascript meta.definition.variable.maniascript
#        ^^^^^^^^ source.maniascript meta.definition.variable.maniascript storage.modifier.maniascript
#                ^ source.maniascript meta.definition.variable.maniascript
#                 ^^ source.maniascript meta.definition.variable.maniascript variable.other.readwrite.maniascript
#                   ^ source.maniascript meta.definition.variable.maniascript
#                    ^ source.maniascript meta.definition.variable.maniascript keyword.operator.assignment.maniascript
#                     ^ source.maniascript meta.definition.variable.maniascript
#                      ^ source.maniascript meta.definition.variable.maniascript constant.numeric.integer.maniascript
#                       ^ source.maniascript punctuation.terminator.statement.maniascript
>declare netread Integer EE;
#^^^^^^^ source.maniascript meta.definition.variable.maniascript keyword.other.declare.maniascript
#       ^ source.maniascript meta.definition.variable.maniascript
#        ^^^^^^^ source.maniascript meta.definition.variable.maniascript storage.modifier.maniascript
#               ^ source.maniascript meta.definition.variable.maniascript
#                ^^^^^^^ source.maniascript meta.definition.variable.maniascript meta.type.name.maniascript storage.type.maniascript
#                       ^ source.maniascript meta.definition.variable.maniascript
#                        ^^ source.maniascript meta.definition.variable.maniascript variable.other.readwrite.maniascript
#                          ^ source.maniascript punctuation.terminator.statement.maniascript
>declare cloud Integer FF = 1;
#^^^^^^^ source.maniascript meta.definition.variable.maniascript keyword.other.declare.maniascript
#       ^ source.maniascript meta.definition.variable.maniascript
#        ^^^^^ source.maniascript meta.definition.variable.maniascript storage.modifier.maniascript
#             ^ source.maniascript meta.definition.variable.maniascript
#              ^^^^^^^ source.maniascript meta.definition.variable.maniascript meta.type.name.maniascript storage.type.maniascript
#                     ^ source.maniascript meta.definition.variable.maniascript
#                      ^^ source.maniascript meta.definition.variable.maniascript variable.other.readwrite.maniascript
#                        ^ source.maniascript meta.definition.variable.maniascript
#                         ^ source.maniascript meta.definition.variable.maniascript keyword.operator.assignment.maniascript
#                          ^ source.maniascript meta.definition.variable.maniascript
#                           ^ source.maniascript meta.definition.variable.maniascript constant.numeric.integer.maniascript
#                            ^ source.maniascript punctuation.terminator.statement.maniascript
>declare metadata Integer GG for HH;
#^^^^^^^ source.maniascript meta.definition.variable.maniascript keyword.other.declare.maniascript
#       ^ source.maniascript meta.definition.variable.maniascript
#        ^^^^^^^^ source.maniascript meta.definition.variable.maniascript storage.modifier.maniascript
#                ^ source.maniascript meta.definition.variable.maniascript
#                 ^^^^^^^ source.maniascript meta.definition.variable.maniascript meta.type.name.maniascript storage.type.maniascript
#                        ^ source.maniascript meta.definition.variable.maniascript
#                         ^^ source.maniascript meta.definition.variable.maniascript variable.other.readwrite.maniascript
#                           ^ source.maniascript meta.definition.variable.maniascript
#                            ^^^ source.maniascript meta.definition.variable.maniascript keyword.other.for.maniascript
#                               ^ source.maniascript meta.definition.variable.maniascript
#                                ^^ source.maniascript meta.definition.variable.maniascript variable.other.readwrite.maniascript
#                                  ^ source.maniascript punctuation.terminator.statement.maniascript
>declare persistent Integer II for JJ = 1;
#^^^^^^^ source.maniascript meta.definition.variable.maniascript keyword.other.declare.maniascript
#       ^ source.maniascript meta.definition.variable.maniascript
#        ^^^^^^^^^^ source.maniascript meta.definition.variable.maniascript storage.modifier.maniascript
#                  ^ source.maniascript meta.definition.variable.maniascript
#                   ^^^^^^^ source.maniascript meta.definition.variable.maniascript meta.type.name.maniascript storage.type.maniascript
#                          ^ source.maniascript meta.definition.variable.maniascript
#                           ^^ source.maniascript meta.definition.variable.maniascript variable.other.readwrite.maniascript
#                             ^ source.maniascript meta.definition.variable.maniascript
#                              ^^^ source.maniascript meta.definition.variable.maniascript keyword.other.for.maniascript
#                                 ^ source.maniascript meta.definition.variable.maniascript
#                                  ^^ source.maniascript meta.definition.variable.maniascript variable.other.readwrite.maniascript
#                                    ^ source.maniascript meta.definition.variable.maniascript
#                                     ^ source.maniascript meta.definition.variable.maniascript keyword.operator.assignment.maniascript
#                                      ^ source.maniascript meta.definition.variable.maniascript
#                                       ^ source.maniascript meta.definition.variable.maniascript constant.numeric.integer.maniascript
#                                        ^ source.maniascript punctuation.terminator.statement.maniascript
>declare KK::LL MM;
#^^^^^^^ source.maniascript meta.definition.variable.maniascript keyword.other.declare.maniascript
#       ^ source.maniascript meta.definition.variable.maniascript
#        ^^ source.maniascript meta.definition.variable.maniascript meta.type.name.maniascript variable.other.namespace.maniascript
#          ^^ source.maniascript meta.definition.variable.maniascript meta.type.name.maniascript punctuation.separator.coloncolon.maniascript
#            ^^ source.maniascript meta.definition.variable.maniascript meta.type.name.maniascript storage.type.with-namespace.maniascript
#              ^ source.maniascript meta.definition.variable.maniascript
#               ^^ source.maniascript meta.definition.variable.maniascript variable.other.readwrite.maniascript
#                 ^ source.maniascript punctuation.terminator.statement.maniascript
>declare KK::LL MM as NN;
#^^^^^^^ source.maniascript meta.definition.variable.maniascript keyword.other.declare.maniascript
#       ^ source.maniascript meta.definition.variable.maniascript
#        ^^ source.maniascript meta.definition.variable.maniascript meta.type.name.maniascript variable.other.namespace.maniascript
#          ^^ source.maniascript meta.definition.variable.maniascript meta.type.name.maniascript punctuation.separator.coloncolon.maniascript
#            ^^ source.maniascript meta.definition.variable.maniascript meta.type.name.maniascript storage.type.with-namespace.maniascript
#              ^ source.maniascript meta.definition.variable.maniascript
#               ^^ source.maniascript meta.definition.variable.maniascript variable.other.readwrite.maniascript
#                 ^ source.maniascript meta.definition.variable.maniascript
#                  ^^ source.maniascript meta.definition.variable.maniascript keyword.operator.expression.as.maniascript
#                    ^ source.maniascript meta.definition.variable.maniascript
#                     ^^ source.maniascript meta.definition.variable.maniascript variable.other.readwrite.maniascript
#                       ^ source.maniascript punctuation.terminator.statement.maniascript
>declare persistent KK::LL MM as NN;
#^^^^^^^ source.maniascript meta.definition.variable.maniascript keyword.other.declare.maniascript
#       ^ source.maniascript meta.definition.variable.maniascript
#        ^^^^^^^^^^ source.maniascript meta.definition.variable.maniascript storage.modifier.maniascript
#                  ^ source.maniascript meta.definition.variable.maniascript
#                   ^^ source.maniascript meta.definition.variable.maniascript meta.type.name.maniascript variable.other.namespace.maniascript
#                     ^^ source.maniascript meta.definition.variable.maniascript meta.type.name.maniascript punctuation.separator.coloncolon.maniascript
#                       ^^ source.maniascript meta.definition.variable.maniascript meta.type.name.maniascript storage.type.with-namespace.maniascript
#                         ^ source.maniascript meta.definition.variable.maniascript
#                          ^^ source.maniascript meta.definition.variable.maniascript variable.other.readwrite.maniascript
#                            ^ source.maniascript meta.definition.variable.maniascript
#                             ^^ source.maniascript meta.definition.variable.maniascript keyword.operator.expression.as.maniascript
#                               ^ source.maniascript meta.definition.variable.maniascript
#                                ^^ source.maniascript meta.definition.variable.maniascript variable.other.readwrite.maniascript
#                                  ^ source.maniascript punctuation.terminator.statement.maniascript
>declare persistent KK::LL[ZZ][][YY][][][XX] MM as NN;
#^^^^^^^ source.maniascript meta.definition.variable.maniascript keyword.other.declare.maniascript
#       ^ source.maniascript meta.definition.variable.maniascript
#        ^^^^^^^^^^ source.maniascript meta.definition.variable.maniascript storage.modifier.maniascript
#                  ^ source.maniascript meta.definition.variable.maniascript
#                   ^^ source.maniascript meta.definition.variable.maniascript meta.type.name.maniascript variable.other.namespace.maniascript
#                     ^^ source.maniascript meta.definition.variable.maniascript meta.type.name.maniascript punctuation.separator.coloncolon.maniascript
#                       ^^ source.maniascript meta.definition.variable.maniascript meta.type.name.maniascript storage.type.with-namespace.maniascript
#                         ^ source.maniascript meta.definition.variable.maniascript meta.type.name.maniascript punctuation.squarebracket.open.maniascript
#                          ^^ source.maniascript meta.definition.variable.maniascript meta.type.name.maniascript storage.type.maniascript
#                            ^ source.maniascript meta.definition.variable.maniascript meta.type.name.maniascript punctuation.squarebracket.close.maniascript
#                             ^ source.maniascript meta.definition.variable.maniascript meta.type.name.maniascript punctuation.squarebracket.open.maniascript
#                              ^ source.maniascript meta.definition.variable.maniascript meta.type.name.maniascript punctuation.squarebracket.close.maniascript
#                               ^ source.maniascript meta.definition.variable.maniascript meta.type.name.maniascript punctuation.squarebracket.open.maniascript
#                                ^^ source.maniascript meta.definition.variable.maniascript meta.type.name.maniascript storage.type.maniascript
#                                  ^ source.maniascript meta.definition.variable.maniascript meta.type.name.maniascript punctuation.squarebracket.close.maniascript
#                                   ^ source.maniascript meta.definition.variable.maniascript meta.type.name.maniascript punctuation.squarebracket.open.maniascript
#                                    ^ source.maniascript meta.definition.variable.maniascript meta.type.name.maniascript punctuation.squarebracket.close.maniascript
#                                     ^ source.maniascript meta.definition.variable.maniascript meta.type.name.maniascript punctuation.squarebracket.open.maniascript
#                                      ^ source.maniascript meta.definition.variable.maniascript meta.type.name.maniascript punctuation.squarebracket.close.maniascript
#                                       ^ source.maniascript meta.definition.variable.maniascript meta.type.name.maniascript punctuation.squarebracket.open.maniascript
#                                        ^^ source.maniascript meta.definition.variable.maniascript meta.type.name.maniascript storage.type.maniascript
#                                          ^ source.maniascript meta.definition.variable.maniascript meta.type.name.maniascript punctuation.squarebracket.close.maniascript
#                                           ^ source.maniascript meta.definition.variable.maniascript
#                                            ^^ source.maniascript meta.definition.variable.maniascript variable.other.readwrite.maniascript
#                                              ^ source.maniascript meta.definition.variable.maniascript
#                                               ^^ source.maniascript meta.definition.variable.maniascript keyword.operator.expression.as.maniascript
#                                                 ^ source.maniascript meta.definition.variable.maniascript
#                                                  ^^ source.maniascript meta.definition.variable.maniascript variable.other.readwrite.maniascript
#                                                    ^ source.maniascript punctuation.terminator.statement.maniascript
>declare persistent KK::LL[KK::LL][][KK::LL][][][KK::LL] MM as NN;
#^^^^^^^ source.maniascript meta.definition.variable.maniascript keyword.other.declare.maniascript
#       ^ source.maniascript meta.definition.variable.maniascript
#        ^^^^^^^^^^ source.maniascript meta.definition.variable.maniascript storage.modifier.maniascript
#                  ^ source.maniascript meta.definition.variable.maniascript
#                   ^^ source.maniascript meta.definition.variable.maniascript meta.type.name.maniascript variable.other.namespace.maniascript
#                     ^^ source.maniascript meta.definition.variable.maniascript meta.type.name.maniascript punctuation.separator.coloncolon.maniascript
#                       ^^ source.maniascript meta.definition.variable.maniascript meta.type.name.maniascript storage.type.with-namespace.maniascript
#                         ^ source.maniascript meta.definition.variable.maniascript meta.type.name.maniascript punctuation.squarebracket.open.maniascript
#                          ^^ source.maniascript meta.definition.variable.maniascript meta.type.name.maniascript variable.other.namespace.maniascript
#                            ^^ source.maniascript meta.definition.variable.maniascript meta.type.name.maniascript punctuation.separator.coloncolon.maniascript
#                              ^^ source.maniascript meta.definition.variable.maniascript meta.type.name.maniascript storage.type.with-namespace.maniascript
#                                ^ source.maniascript meta.definition.variable.maniascript meta.type.name.maniascript punctuation.squarebracket.close.maniascript
#                                 ^ source.maniascript meta.definition.variable.maniascript meta.type.name.maniascript punctuation.squarebracket.open.maniascript
#                                  ^ source.maniascript meta.definition.variable.maniascript meta.type.name.maniascript punctuation.squarebracket.close.maniascript
#                                   ^ source.maniascript meta.definition.variable.maniascript meta.type.name.maniascript punctuation.squarebracket.open.maniascript
#                                    ^^ source.maniascript meta.definition.variable.maniascript meta.type.name.maniascript variable.other.namespace.maniascript
#                                      ^^ source.maniascript meta.definition.variable.maniascript meta.type.name.maniascript punctuation.separator.coloncolon.maniascript
#                                        ^^ source.maniascript meta.definition.variable.maniascript meta.type.name.maniascript storage.type.with-namespace.maniascript
#                                          ^ source.maniascript meta.definition.variable.maniascript meta.type.name.maniascript punctuation.squarebracket.close.maniascript
#                                           ^ source.maniascript meta.definition.variable.maniascript meta.type.name.maniascript punctuation.squarebracket.open.maniascript
#                                            ^ source.maniascript meta.definition.variable.maniascript meta.type.name.maniascript punctuation.squarebracket.close.maniascript
#                                             ^ source.maniascript meta.definition.variable.maniascript meta.type.name.maniascript punctuation.squarebracket.open.maniascript
#                                              ^ source.maniascript meta.definition.variable.maniascript meta.type.name.maniascript punctuation.squarebracket.close.maniascript
#                                               ^ source.maniascript meta.definition.variable.maniascript meta.type.name.maniascript punctuation.squarebracket.open.maniascript
#                                                ^^ source.maniascript meta.definition.variable.maniascript meta.type.name.maniascript variable.other.namespace.maniascript
#                                                  ^^ source.maniascript meta.definition.variable.maniascript meta.type.name.maniascript punctuation.separator.coloncolon.maniascript
#                                                    ^^ source.maniascript meta.definition.variable.maniascript meta.type.name.maniascript storage.type.with-namespace.maniascript
#                                                      ^ source.maniascript meta.definition.variable.maniascript meta.type.name.maniascript punctuation.squarebracket.close.maniascript
#                                                       ^ source.maniascript meta.definition.variable.maniascript
#                                                        ^^ source.maniascript meta.definition.variable.maniascript variable.other.readwrite.maniascript
#                                                          ^ source.maniascript meta.definition.variable.maniascript
#                                                           ^^ source.maniascript meta.definition.variable.maniascript keyword.operator.expression.as.maniascript
#                                                             ^ source.maniascript meta.definition.variable.maniascript
#                                                              ^^ source.maniascript meta.definition.variable.maniascript variable.other.readwrite.maniascript
#                                                                ^ source.maniascript punctuation.terminator.statement.maniascript
>declare
#^^^^^^^ source.maniascript meta.definition.variable.maniascript keyword.other.declare.maniascript
>persistent
#^^^^^^^^^^ source.maniascript meta.definition.variable.maniascript storage.modifier.maniascript
>Integer
#^^^^^^^ source.maniascript meta.definition.variable.maniascript variable.other.type-or-name.maniascript
>II
#^^ source.maniascript meta.definition.variable.maniascript variable.other.type-or-name.maniascript
>for
#^^^ source.maniascript meta.definition.variable.maniascript keyword.other.for.maniascript
>JJ
#^^ source.maniascript meta.definition.variable.maniascript variable.other.readwrite.maniascript
>=
#^ source.maniascript meta.definition.variable.maniascript keyword.operator.assignment.maniascript
>1
#^ source.maniascript meta.definition.variable.maniascript constant.numeric.integer.maniascript
>;
#^ source.maniascript punctuation.terminator.statement.maniascript
>declare
#^^^^^^^ source.maniascript meta.definition.variable.maniascript keyword.other.declare.maniascript
>netwrite
#^^^^^^^^ source.maniascript meta.definition.variable.maniascript storage.modifier.maniascript
>Integer
#^^^^^^^ source.maniascript meta.definition.variable.maniascript variable.other.type-or-name.maniascript
>X
#^ source.maniascript meta.definition.variable.maniascript variable.other.type-or-name.maniascript
>as
#^^ source.maniascript meta.definition.variable.maniascript keyword.operator.expression.as.maniascript
>Y
#^ source.maniascript meta.definition.variable.maniascript variable.other.readwrite.maniascript
>for
#^^^ source.maniascript meta.definition.variable.maniascript keyword.other.for.maniascript
>This
#^^^^ source.maniascript meta.definition.variable.maniascript variable.language.this.maniascript
>=
#^ source.maniascript meta.definition.variable.maniascript keyword.operator.assignment.maniascript
>1
#^ source.maniascript meta.definition.variable.maniascript constant.numeric.integer.maniascript
>;
#^ source.maniascript punctuation.terminator.statement.maniascript
>declare
#^^^^^^^ source.maniascript meta.definition.variable.maniascript keyword.other.declare.maniascript
>// Comment
#^^ source.maniascript meta.definition.variable.maniascript comment.line.double-slash.maniascript punctuation.definition.comment.maniascript
#  ^^^^^^^^ source.maniascript meta.definition.variable.maniascript comment.line.double-slash.maniascript
>netwrite
#^^^^^^^^ source.maniascript meta.definition.variable.maniascript storage.modifier.maniascript
>// Comment
#^^ source.maniascript meta.definition.variable.maniascript comment.line.double-slash.maniascript punctuation.definition.comment.maniascript
#  ^^^^^^^^ source.maniascript meta.definition.variable.maniascript comment.line.double-slash.maniascript
>Integer
#^^^^^^^ source.maniascript meta.definition.variable.maniascript variable.other.type-or-name.maniascript
>// Comment
#^^ source.maniascript meta.definition.variable.maniascript comment.line.double-slash.maniascript punctuation.definition.comment.maniascript
#  ^^^^^^^^ source.maniascript meta.definition.variable.maniascript comment.line.double-slash.maniascript
>X
#^ source.maniascript meta.definition.variable.maniascript variable.other.type-or-name.maniascript
>// Comment
#^^ source.maniascript meta.definition.variable.maniascript comment.line.double-slash.maniascript punctuation.definition.comment.maniascript
#  ^^^^^^^^ source.maniascript meta.definition.variable.maniascript comment.line.double-slash.maniascript
>as
#^^ source.maniascript meta.definition.variable.maniascript keyword.operator.expression.as.maniascript
>// Comment
#^^ source.maniascript meta.definition.variable.maniascript comment.line.double-slash.maniascript punctuation.definition.comment.maniascript
#  ^^^^^^^^ source.maniascript meta.definition.variable.maniascript comment.line.double-slash.maniascript
>Y
#^ source.maniascript meta.definition.variable.maniascript variable.other.readwrite.maniascript
>// Comment
#^^ source.maniascript meta.definition.variable.maniascript comment.line.double-slash.maniascript punctuation.definition.comment.maniascript
#  ^^^^^^^^ source.maniascript meta.definition.variable.maniascript comment.line.double-slash.maniascript
>for
#^^^ source.maniascript meta.definition.variable.maniascript keyword.other.for.maniascript
>// Comment
#^^ source.maniascript meta.definition.variable.maniascript comment.line.double-slash.maniascript punctuation.definition.comment.maniascript
#  ^^^^^^^^ source.maniascript meta.definition.variable.maniascript comment.line.double-slash.maniascript
>This
#^^^^ source.maniascript meta.definition.variable.maniascript variable.language.this.maniascript
>// Comment
#^^ source.maniascript meta.definition.variable.maniascript comment.line.double-slash.maniascript punctuation.definition.comment.maniascript
#  ^^^^^^^^ source.maniascript meta.definition.variable.maniascript comment.line.double-slash.maniascript
>=
#^ source.maniascript meta.definition.variable.maniascript keyword.operator.assignment.maniascript
>// Comment
#^^ source.maniascript meta.definition.variable.maniascript comment.line.double-slash.maniascript punctuation.definition.comment.maniascript
#  ^^^^^^^^ source.maniascript meta.definition.variable.maniascript comment.line.double-slash.maniascript
>1
#^ source.maniascript meta.definition.variable.maniascript constant.numeric.integer.maniascript
>// Comment
#^^ source.maniascript meta.definition.variable.maniascript comment.line.double-slash.maniascript punctuation.definition.comment.maniascript
#  ^^^^^^^^ source.maniascript meta.definition.variable.maniascript comment.line.double-slash.maniascript
>;
#^ source.maniascript punctuation.terminator.statement.maniascript
>// Comment
#^^ source.maniascript comment.line.double-slash.maniascript punctuation.definition.comment.maniascript
#  ^^^^^^^^ source.maniascript comment.line.double-slash.maniascript
>